([('weidian_start.exe',
   'F:\\upsec_project\\crawl_register\\weidan\\597\\归档\\build\\weidian_start\\weidian_start.exe',
   'EXECUTABLE'),
  ('api-ms-win-crt-stdio-l1-1-0.dll',
   'C:\\WINDOWS\\system32\\api-ms-win-crt-stdio-l1-1-0.dll',
   'BINARY'),
  ('api-ms-win-crt-runtime-l1-1-0.dll',
   'C:\\WINDOWS\\system32\\api-ms-win-crt-runtime-l1-1-0.dll',
   'BINARY'),
  ('python37.dll', 'd:\\python37\\python37.dll', 'BINARY'),
  ('api-ms-win-crt-heap-l1-1-0.dll',
   'C:\\WINDOWS\\system32\\api-ms-win-crt-heap-l1-1-0.dll',
   'BINARY'),
  ('api-ms-win-crt-locale-l1-1-0.dll',
   'C:\\WINDOWS\\system32\\api-ms-win-crt-locale-l1-1-0.dll',
   'BINARY'),
  ('api-ms-win-crt-math-l1-1-0.dll',
   'C:\\WINDOWS\\system32\\api-ms-win-crt-math-l1-1-0.dll',
   'BINARY'),
  ('VCRUNTIME140.dll', 'd:\\python37\\VCRUNTIME140.dll', 'BINARY'),
  ('ucrtbase.dll', 'C:\\WINDOWS\\system32\\ucrtbase.dll', 'BINARY'),
  ('api-ms-win-crt-convert-l1-1-0.dll',
   'C:\\WINDOWS\\system32\\api-ms-win-crt-convert-l1-1-0.dll',
   'BINARY'),
  ('api-ms-win-crt-conio-l1-1-0.dll',
   'C:\\WINDOWS\\system32\\api-ms-win-crt-conio-l1-1-0.dll',
   'BINARY'),
  ('api-ms-win-crt-environment-l1-1-0.dll',
   'C:\\WINDOWS\\system32\\api-ms-win-crt-environment-l1-1-0.dll',
   'BINARY'),
  ('api-ms-win-crt-string-l1-1-0.dll',
   'C:\\WINDOWS\\system32\\api-ms-win-crt-string-l1-1-0.dll',
   'BINARY'),
  ('api-ms-win-crt-filesystem-l1-1-0.dll',
   'C:\\WINDOWS\\system32\\api-ms-win-crt-filesystem-l1-1-0.dll',
   'BINARY'),
  ('api-ms-win-crt-time-l1-1-0.dll',
   'C:\\WINDOWS\\system32\\api-ms-win-crt-time-l1-1-0.dll',
   'BINARY'),
  ('api-ms-win-crt-process-l1-1-0.dll',
   'C:\\WINDOWS\\system32\\api-ms-win-crt-process-l1-1-0.dll',
   'BINARY'),
  ('api-ms-win-core-string-l1-1-0.dll',
   'C:\\WINDOWS\\system32\\api-ms-win-core-string-l1-1-0.dll',
   'BINARY'),
  ('api-ms-win-core-processthreads-l1-1-0.dll',
   'C:\\WINDOWS\\system32\\api-ms-win-core-processthreads-l1-1-0.dll',
   'BINARY'),
  ('api-ms-win-core-datetime-l1-1-0.dll',
   'C:\\WINDOWS\\system32\\api-ms-win-core-datetime-l1-1-0.dll',
   'BINARY'),
  ('api-ms-win-core-handle-l1-1-0.dll',
   'C:\\WINDOWS\\system32\\api-ms-win-core-handle-l1-1-0.dll',
   'BINARY'),
  ('api-ms-win-core-synch-l1-1-0.dll',
   'C:\\WINDOWS\\system32\\api-ms-win-core-synch-l1-1-0.dll',
   'BINARY'),
  ('api-ms-win-core-processenvironment-l1-1-0.dll',
   'C:\\WINDOWS\\system32\\api-ms-win-core-processenvironment-l1-1-0.dll',
   'BINARY'),
  ('api-ms-win-core-util-l1-1-0.dll',
   'C:\\WINDOWS\\system32\\api-ms-win-core-util-l1-1-0.dll',
   'BINARY'),
  ('api-ms-win-core-profile-l1-1-0.dll',
   'C:\\WINDOWS\\system32\\api-ms-win-core-profile-l1-1-0.dll',
   'BINARY'),
  ('api-ms-win-core-memory-l1-1-0.dll',
   'C:\\WINDOWS\\system32\\api-ms-win-core-memory-l1-1-0.dll',
   'BINARY'),
  ('api-ms-win-core-libraryloader-l1-1-0.dll',
   'C:\\WINDOWS\\system32\\api-ms-win-core-libraryloader-l1-1-0.dll',
   'BINARY'),
  ('api-ms-win-core-file-l2-1-0.dll',
   'C:\\WINDOWS\\system32\\api-ms-win-core-file-l2-1-0.dll',
   'BINARY'),
  ('api-ms-win-core-localization-l1-2-0.dll',
   'C:\\WINDOWS\\system32\\api-ms-win-core-localization-l1-2-0.dll',
   'BINARY'),
  ('api-ms-win-core-file-l1-2-0.dll',
   'C:\\WINDOWS\\system32\\api-ms-win-core-file-l1-2-0.dll',
   'BINARY'),
  ('api-ms-win-core-processthreads-l1-1-1.dll',
   'C:\\WINDOWS\\system32\\api-ms-win-core-processthreads-l1-1-1.dll',
   'BINARY'),
  ('api-ms-win-core-rtlsupport-l1-1-0.dll',
   'C:\\WINDOWS\\system32\\api-ms-win-core-rtlsupport-l1-1-0.dll',
   'BINARY'),
  ('api-ms-win-core-file-l1-1-0.dll',
   'C:\\WINDOWS\\system32\\api-ms-win-core-file-l1-1-0.dll',
   'BINARY'),
  ('api-ms-win-core-sysinfo-l1-1-0.dll',
   'C:\\WINDOWS\\system32\\api-ms-win-core-sysinfo-l1-1-0.dll',
   'BINARY'),
  ('api-ms-win-core-debug-l1-1-0.dll',
   'C:\\WINDOWS\\system32\\api-ms-win-core-debug-l1-1-0.dll',
   'BINARY'),
  ('api-ms-win-core-synch-l1-2-0.dll',
   'C:\\WINDOWS\\system32\\api-ms-win-core-synch-l1-2-0.dll',
   'BINARY'),
  ('api-ms-win-core-console-l1-1-0.dll',
   'C:\\WINDOWS\\system32\\api-ms-win-core-console-l1-1-0.dll',
   'BINARY'),
  ('api-ms-win-core-interlocked-l1-1-0.dll',
   'C:\\WINDOWS\\system32\\api-ms-win-core-interlocked-l1-1-0.dll',
   'BINARY'),
  ('api-ms-win-core-heap-l1-1-0.dll',
   'C:\\WINDOWS\\system32\\api-ms-win-core-heap-l1-1-0.dll',
   'BINARY'),
  ('api-ms-win-core-errorhandling-l1-1-0.dll',
   'C:\\WINDOWS\\system32\\api-ms-win-core-errorhandling-l1-1-0.dll',
   'BINARY'),
  ('api-ms-win-core-timezone-l1-1-0.dll',
   'C:\\WINDOWS\\system32\\api-ms-win-core-timezone-l1-1-0.dll',
   'BINARY'),
  ('api-ms-win-core-namedpipe-l1-1-0.dll',
   'C:\\WINDOWS\\system32\\api-ms-win-core-namedpipe-l1-1-0.dll',
   'BINARY'),
  ('Crypto\\Cipher\\_raw_arc2.cp37-win_amd64.pyd',
   'd:\\python37\\lib\\site-packages\\Crypto\\Cipher\\_raw_arc2.cp37-win_amd64.pyd',
   'BINARY'),
  ('PyQt5\\Qt5\\plugins\\imageformats\\qwebp.dll',
   'D:\\python37\\lib\\site-packages\\PyQt5\\Qt5\\plugins\\imageformats\\qwebp.dll',
   'BINARY'),
  ('Crypto\\Hash\\_BLAKE2s.cp37-win_amd64.pyd',
   'd:\\python37\\lib\\site-packages\\Crypto\\Hash\\_BLAKE2s.cp37-win_amd64.pyd',
   'BINARY'),
  ('PyQt5\\Qt5\\plugins\\styles\\qwindowsvistastyle.dll',
   'D:\\python37\\lib\\site-packages\\PyQt5\\Qt5\\plugins\\styles\\qwindowsvistastyle.dll',
   'BINARY'),
  ('PyQt5\\Qt5\\plugins\\imageformats\\qwbmp.dll',
   'D:\\python37\\lib\\site-packages\\PyQt5\\Qt5\\plugins\\imageformats\\qwbmp.dll',
   'BINARY'),
  ('Crypto\\Cipher\\_chacha20.cp37-win_amd64.pyd',
   'd:\\python37\\lib\\site-packages\\Crypto\\Cipher\\_chacha20.cp37-win_amd64.pyd',
   'BINARY'),
  ('PyQt5\\Qt5\\plugins\\platforms\\qwebgl.dll',
   'D:\\python37\\lib\\site-packages\\PyQt5\\Qt5\\plugins\\platforms\\qwebgl.dll',
   'BINARY'),
  ('PyQt5\\Qt5\\plugins\\platforms\\qminimal.dll',
   'D:\\python37\\lib\\site-packages\\PyQt5\\Qt5\\plugins\\platforms\\qminimal.dll',
   'BINARY'),
  ('Crypto\\PublicKey\\_ec_ws.cp37-win_amd64.pyd',
   'd:\\python37\\lib\\site-packages\\Crypto\\PublicKey\\_ec_ws.cp37-win_amd64.pyd',
   'BINARY'),
  ('libopenblas.WCDJNK7YVMPZQ2ME2ZZHJJRJ3JIKNDB7.gfortran-win_amd64.dll',
   'd:\\python37\\lib\\site-packages\\numpy\\.libs\\libopenblas.WCDJNK7YVMPZQ2ME2ZZHJJRJ3JIKNDB7.gfortran-win_amd64.dll',
   'BINARY'),
  ('PyQt5\\Qt5\\plugins\\platforms\\qwindows.dll',
   'D:\\python37\\lib\\site-packages\\PyQt5\\Qt5\\plugins\\platforms\\qwindows.dll',
   'BINARY'),
  ('PyQt5\\Qt5\\plugins\\imageformats\\qjpeg.dll',
   'D:\\python37\\lib\\site-packages\\PyQt5\\Qt5\\plugins\\imageformats\\qjpeg.dll',
   'BINARY'),
  ('PyQt5\\Qt5\\plugins\\imageformats\\qicns.dll',
   'D:\\python37\\lib\\site-packages\\PyQt5\\Qt5\\plugins\\imageformats\\qicns.dll',
   'BINARY'),
  ('opengl32sw.dll',
   'D:\\python37\\lib\\site-packages\\PyQt5\\Qt5\\bin\\opengl32sw.dll',
   'BINARY'),
  ('pythoncom37.dll',
   'd:\\python37\\lib\\site-packages\\pywin32_system32\\pythoncom37.dll',
   'BINARY'),
  ('Crypto\\Cipher\\_raw_des.cp37-win_amd64.pyd',
   'd:\\python37\\lib\\site-packages\\Crypto\\Cipher\\_raw_des.cp37-win_amd64.pyd',
   'BINARY'),
  ('libEGL.dll',
   'D:\\python37\\lib\\site-packages\\PyQt5\\Qt5\\bin\\libEGL.dll',
   'BINARY'),
  ('PyQt5\\Qt5\\plugins\\imageformats\\qgif.dll',
   'D:\\python37\\lib\\site-packages\\PyQt5\\Qt5\\plugins\\imageformats\\qgif.dll',
   'BINARY'),
  ('Crypto\\Hash\\_MD2.cp37-win_amd64.pyd',
   'd:\\python37\\lib\\site-packages\\Crypto\\Hash\\_MD2.cp37-win_amd64.pyd',
   'BINARY'),
  ('Crypto\\Cipher\\_Salsa20.cp37-win_amd64.pyd',
   'd:\\python37\\lib\\site-packages\\Crypto\\Cipher\\_Salsa20.cp37-win_amd64.pyd',
   'BINARY'),
  ('Crypto\\Protocol\\_scrypt.cp37-win_amd64.pyd',
   'd:\\python37\\lib\\site-packages\\Crypto\\Protocol\\_scrypt.cp37-win_amd64.pyd',
   'BINARY'),
  ('cv2\\opencv_videoio_ffmpeg452_64.dll',
   'd:\\python37\\lib\\site-packages\\cv2\\opencv_videoio_ffmpeg452_64.dll',
   'BINARY'),
  ('Crypto\\Cipher\\_raw_cfb.cp37-win_amd64.pyd',
   'd:\\python37\\lib\\site-packages\\Crypto\\Cipher\\_raw_cfb.cp37-win_amd64.pyd',
   'BINARY'),
  ('Crypto\\Hash\\_SHA224.cp37-win_amd64.pyd',
   'd:\\python37\\lib\\site-packages\\Crypto\\Hash\\_SHA224.cp37-win_amd64.pyd',
   'BINARY'),
  ('Crypto\\Cipher\\_raw_aes.cp37-win_amd64.pyd',
   'd:\\python37\\lib\\site-packages\\Crypto\\Cipher\\_raw_aes.cp37-win_amd64.pyd',
   'BINARY'),
  ('Crypto\\Cipher\\_raw_ecb.cp37-win_amd64.pyd',
   'd:\\python37\\lib\\site-packages\\Crypto\\Cipher\\_raw_ecb.cp37-win_amd64.pyd',
   'BINARY'),
  ('Crypto\\Hash\\_poly1305.cp37-win_amd64.pyd',
   'd:\\python37\\lib\\site-packages\\Crypto\\Hash\\_poly1305.cp37-win_amd64.pyd',
   'BINARY'),
  ('PyQt5\\Qt5\\plugins\\imageformats\\qsvg.dll',
   'D:\\python37\\lib\\site-packages\\PyQt5\\Qt5\\plugins\\imageformats\\qsvg.dll',
   'BINARY'),
  ('d3dcompiler_47.dll',
   'D:\\python37\\lib\\site-packages\\PyQt5\\Qt5\\bin\\d3dcompiler_47.dll',
   'BINARY'),
  ('Crypto\\Hash\\_ghash_portable.cp37-win_amd64.pyd',
   'd:\\python37\\lib\\site-packages\\Crypto\\Hash\\_ghash_portable.cp37-win_amd64.pyd',
   'BINARY'),
  ('Crypto\\Cipher\\_ARC4.cp37-win_amd64.pyd',
   'd:\\python37\\lib\\site-packages\\Crypto\\Cipher\\_ARC4.cp37-win_amd64.pyd',
   'BINARY'),
  ('Crypto\\Cipher\\_raw_blowfish.cp37-win_amd64.pyd',
   'd:\\python37\\lib\\site-packages\\Crypto\\Cipher\\_raw_blowfish.cp37-win_amd64.pyd',
   'BINARY'),
  ('PyQt5\\Qt5\\plugins\\imageformats\\qico.dll',
   'D:\\python37\\lib\\site-packages\\PyQt5\\Qt5\\plugins\\imageformats\\qico.dll',
   'BINARY'),
  ('Crypto\\Cipher\\_raw_eksblowfish.cp37-win_amd64.pyd',
   'd:\\python37\\lib\\site-packages\\Crypto\\Cipher\\_raw_eksblowfish.cp37-win_amd64.pyd',
   'BINARY'),
  ('Crypto\\Hash\\_RIPEMD160.cp37-win_amd64.pyd',
   'd:\\python37\\lib\\site-packages\\Crypto\\Hash\\_RIPEMD160.cp37-win_amd64.pyd',
   'BINARY'),
  ('Crypto\\Cipher\\_raw_cast.cp37-win_amd64.pyd',
   'd:\\python37\\lib\\site-packages\\Crypto\\Cipher\\_raw_cast.cp37-win_amd64.pyd',
   'BINARY'),
  ('PyQt5\\Qt5\\plugins\\imageformats\\qtiff.dll',
   'D:\\python37\\lib\\site-packages\\PyQt5\\Qt5\\plugins\\imageformats\\qtiff.dll',
   'BINARY'),
  ('pywintypes37.dll',
   'd:\\python37\\lib\\site-packages\\pywin32_system32\\pywintypes37.dll',
   'BINARY'),
  ('Crypto\\Cipher\\_raw_ofb.cp37-win_amd64.pyd',
   'd:\\python37\\lib\\site-packages\\Crypto\\Cipher\\_raw_ofb.cp37-win_amd64.pyd',
   'BINARY'),
  ('PyQt5\\Qt5\\plugins\\imageformats\\qtga.dll',
   'D:\\python37\\lib\\site-packages\\PyQt5\\Qt5\\plugins\\imageformats\\qtga.dll',
   'BINARY'),
  ('PyQt5\\Qt5\\plugins\\platforms\\qoffscreen.dll',
   'D:\\python37\\lib\\site-packages\\PyQt5\\Qt5\\plugins\\platforms\\qoffscreen.dll',
   'BINARY'),
  ('Crypto\\Cipher\\_raw_ocb.cp37-win_amd64.pyd',
   'd:\\python37\\lib\\site-packages\\Crypto\\Cipher\\_raw_ocb.cp37-win_amd64.pyd',
   'BINARY'),
  ('Crypto\\Hash\\_SHA384.cp37-win_amd64.pyd',
   'd:\\python37\\lib\\site-packages\\Crypto\\Hash\\_SHA384.cp37-win_amd64.pyd',
   'BINARY'),
  ('Crypto\\Hash\\_SHA1.cp37-win_amd64.pyd',
   'd:\\python37\\lib\\site-packages\\Crypto\\Hash\\_SHA1.cp37-win_amd64.pyd',
   'BINARY'),
  ('Crypto\\Util\\_strxor.cp37-win_amd64.pyd',
   'd:\\python37\\lib\\site-packages\\Crypto\\Util\\_strxor.cp37-win_amd64.pyd',
   'BINARY'),
  ('libGLESv2.dll',
   'D:\\python37\\lib\\site-packages\\PyQt5\\Qt5\\bin\\libGLESv2.dll',
   'BINARY'),
  ('Crypto\\Cipher\\_raw_ctr.cp37-win_amd64.pyd',
   'd:\\python37\\lib\\site-packages\\Crypto\\Cipher\\_raw_ctr.cp37-win_amd64.pyd',
   'BINARY'),
  ('Crypto\\Math\\_modexp.cp37-win_amd64.pyd',
   'd:\\python37\\lib\\site-packages\\Crypto\\Math\\_modexp.cp37-win_amd64.pyd',
   'BINARY'),
  ('Crypto\\Util\\_cpuid_c.cp37-win_amd64.pyd',
   'd:\\python37\\lib\\site-packages\\Crypto\\Util\\_cpuid_c.cp37-win_amd64.pyd',
   'BINARY'),
  ('Crypto\\Hash\\_SHA256.cp37-win_amd64.pyd',
   'd:\\python37\\lib\\site-packages\\Crypto\\Hash\\_SHA256.cp37-win_amd64.pyd',
   'BINARY'),
  ('Crypto\\Cipher\\_raw_cbc.cp37-win_amd64.pyd',
   'd:\\python37\\lib\\site-packages\\Crypto\\Cipher\\_raw_cbc.cp37-win_amd64.pyd',
   'BINARY'),
  ('Crypto\\Hash\\_MD5.cp37-win_amd64.pyd',
   'd:\\python37\\lib\\site-packages\\Crypto\\Hash\\_MD5.cp37-win_amd64.pyd',
   'BINARY'),
  ('PyQt5\\Qt5\\plugins\\platformthemes\\qxdgdesktopportal.dll',
   'D:\\python37\\lib\\site-packages\\PyQt5\\Qt5\\plugins\\platformthemes\\qxdgdesktopportal.dll',
   'BINARY'),
  ('Crypto\\Hash\\_SHA512.cp37-win_amd64.pyd',
   'd:\\python37\\lib\\site-packages\\Crypto\\Hash\\_SHA512.cp37-win_amd64.pyd',
   'BINARY'),
  ('PyQt5\\Qt5\\plugins\\iconengines\\qsvgicon.dll',
   'D:\\python37\\lib\\site-packages\\PyQt5\\Qt5\\plugins\\iconengines\\qsvgicon.dll',
   'BINARY'),
  ('Crypto\\Hash\\_keccak.cp37-win_amd64.pyd',
   'd:\\python37\\lib\\site-packages\\Crypto\\Hash\\_keccak.cp37-win_amd64.pyd',
   'BINARY'),
  ('Crypto\\Cipher\\_raw_des3.cp37-win_amd64.pyd',
   'd:\\python37\\lib\\site-packages\\Crypto\\Cipher\\_raw_des3.cp37-win_amd64.pyd',
   'BINARY'),
  ('Crypto\\Cipher\\_raw_aesni.cp37-win_amd64.pyd',
   'd:\\python37\\lib\\site-packages\\Crypto\\Cipher\\_raw_aesni.cp37-win_amd64.pyd',
   'BINARY'),
  ('Crypto\\Hash\\_BLAKE2b.cp37-win_amd64.pyd',
   'd:\\python37\\lib\\site-packages\\Crypto\\Hash\\_BLAKE2b.cp37-win_amd64.pyd',
   'BINARY'),
  ('Crypto\\Hash\\_ghash_clmul.cp37-win_amd64.pyd',
   'd:\\python37\\lib\\site-packages\\Crypto\\Hash\\_ghash_clmul.cp37-win_amd64.pyd',
   'BINARY'),
  ('cv2\\opencv_videoio_ffmpeg453_64.dll',
   'd:\\python37\\lib\\site-packages\\cv2\\opencv_videoio_ffmpeg453_64.dll',
   'BINARY'),
  ('Crypto\\Hash\\_MD4.cp37-win_amd64.pyd',
   'd:\\python37\\lib\\site-packages\\Crypto\\Hash\\_MD4.cp37-win_amd64.pyd',
   'BINARY'),
  ('win32trace',
   'd:\\python37\\lib\\site-packages\\win32\\win32trace.pyd',
   'EXTENSION'),
  ('win32ui',
   'd:\\python37\\lib\\site-packages\\Pythonwin\\win32ui.pyd',
   'EXTENSION'),
  ('_lzma', 'd:\\python37\\DLLs\\_lzma.pyd', 'EXTENSION'),
  ('_bz2', 'd:\\python37\\DLLs\\_bz2.pyd', 'EXTENSION'),
  ('_win32sysloader',
   'd:\\python37\\lib\\site-packages\\win32\\_win32sysloader.pyd',
   'EXTENSION'),
  ('win32api',
   'd:\\python37\\lib\\site-packages\\win32\\win32api.pyd',
   'EXTENSION'),
  ('_ctypes', 'd:\\python37\\DLLs\\_ctypes.pyd', 'EXTENSION'),
  ('select', 'd:\\python37\\DLLs\\select.pyd', 'EXTENSION'),
  ('win32wnet',
   'd:\\python37\\lib\\site-packages\\win32\\win32wnet.pyd',
   'EXTENSION'),
  ('_socket', 'd:\\python37\\DLLs\\_socket.pyd', 'EXTENSION'),
  ('_ssl', 'd:\\python37\\DLLs\\_ssl.pyd', 'EXTENSION'),
  ('win32evtlog',
   'd:\\python37\\lib\\site-packages\\win32\\win32evtlog.pyd',
   'EXTENSION'),
  ('_hashlib', 'd:\\python37\\DLLs\\_hashlib.pyd', 'EXTENSION'),
  ('_queue', 'd:\\python37\\DLLs\\_queue.pyd', 'EXTENSION'),
  ('win32com.shell.shell',
   'd:\\python37\\lib\\site-packages\\win32comext\\shell\\shell.pyd',
   'EXTENSION'),
  ('pyexpat', 'd:\\python37\\DLLs\\pyexpat.pyd', 'EXTENSION'),
  ('_multiprocessing', 'd:\\python37\\DLLs\\_multiprocessing.pyd', 'EXTENSION'),
  ('_decimal', 'd:\\python37\\DLLs\\_decimal.pyd', 'EXTENSION'),
  ('unicodedata', 'd:\\python37\\DLLs\\unicodedata.pyd', 'EXTENSION'),
  ('PyQt5.QtGui',
   'd:\\python37\\lib\\site-packages\\PyQt5\\QtGui.pyd',
   'EXTENSION'),
  ('PyQt5.QtWidgets',
   'd:\\python37\\lib\\site-packages\\PyQt5\\QtWidgets.pyd',
   'EXTENSION'),
  ('PyQt5.QtCore',
   'd:\\python37\\lib\\site-packages\\PyQt5\\QtCore.pyd',
   'EXTENSION'),
  ('PyQt5.sip',
   'd:\\python37\\lib\\site-packages\\PyQt5\\sip.cp37-win_amd64.pyd',
   'EXTENSION'),
  ('_cffi_backend',
   'd:\\python37\\lib\\site-packages\\_cffi_backend.cp37-win_amd64.pyd',
   'EXTENSION'),
  ('cryptography.hazmat.bindings._openssl',
   'd:\\python37\\lib\\site-packages\\cryptography\\hazmat\\bindings\\_openssl.cp37-win_amd64.pyd',
   'EXTENSION'),
  ('cryptography.hazmat.bindings._constant_time',
   'd:\\python37\\lib\\site-packages\\cryptography\\hazmat\\bindings\\_constant_time.cp37-win_amd64.pyd',
   'EXTENSION'),
  ('brotli._brotli',
   'd:\\python37\\lib\\site-packages\\brotli\\_brotli.cp37-win_amd64.pyd',
   'EXTENSION'),
  ('simplejson._speedups',
   'd:\\python37\\lib\\site-packages\\simplejson\\_speedups.cp37-win_amd64.pyd',
   'EXTENSION'),
  ('_sqlite3', 'd:\\python37\\DLLs\\_sqlite3.pyd', 'EXTENSION'),
  ('cv2.cv2',
   'd:\\python37\\lib\\site-packages\\cv2\\cv2.cp37-win_amd64.pyd',
   'EXTENSION'),
  ('numpy.core._multiarray_tests',
   'd:\\python37\\lib\\site-packages\\numpy\\core\\_multiarray_tests.cp37-win_amd64.pyd',
   'EXTENSION'),
  ('_elementtree', 'd:\\python37\\DLLs\\_elementtree.pyd', 'EXTENSION'),
  ('psutil._psutil_windows',
   'd:\\python37\\lib\\site-packages\\psutil\\_psutil_windows.cp37-win_amd64.pyd',
   'EXTENSION'),
  ('numpy.core._multiarray_umath',
   'd:\\python37\\lib\\site-packages\\numpy\\core\\_multiarray_umath.cp37-win_amd64.pyd',
   'EXTENSION'),
  ('win32pdh',
   'd:\\python37\\lib\\site-packages\\win32\\win32pdh.pyd',
   'EXTENSION'),
  ('numpy.linalg.lapack_lite',
   'd:\\python37\\lib\\site-packages\\numpy\\linalg\\lapack_lite.cp37-win_amd64.pyd',
   'EXTENSION'),
  ('numpy.random.mtrand',
   'd:\\python37\\lib\\site-packages\\numpy\\random\\mtrand.cp37-win_amd64.pyd',
   'EXTENSION'),
  ('numpy.random._sfc64',
   'd:\\python37\\lib\\site-packages\\numpy\\random\\_sfc64.cp37-win_amd64.pyd',
   'EXTENSION'),
  ('numpy.random._philox',
   'd:\\python37\\lib\\site-packages\\numpy\\random\\_philox.cp37-win_amd64.pyd',
   'EXTENSION'),
  ('numpy.random._pcg64',
   'd:\\python37\\lib\\site-packages\\numpy\\random\\_pcg64.cp37-win_amd64.pyd',
   'EXTENSION'),
  ('numpy.random._mt19937',
   'd:\\python37\\lib\\site-packages\\numpy\\random\\_mt19937.cp37-win_amd64.pyd',
   'EXTENSION'),
  ('numpy.random.bit_generator',
   'd:\\python37\\lib\\site-packages\\numpy\\random\\bit_generator.cp37-win_amd64.pyd',
   'EXTENSION'),
  ('numpy.random._generator',
   'd:\\python37\\lib\\site-packages\\numpy\\random\\_generator.cp37-win_amd64.pyd',
   'EXTENSION'),
  ('numpy.random._bounded_integers',
   'd:\\python37\\lib\\site-packages\\numpy\\random\\_bounded_integers.cp37-win_amd64.pyd',
   'EXTENSION'),
  ('numpy.random._common',
   'd:\\python37\\lib\\site-packages\\numpy\\random\\_common.cp37-win_amd64.pyd',
   'EXTENSION'),
  ('numpy.fft._pocketfft_internal',
   'd:\\python37\\lib\\site-packages\\numpy\\fft\\_pocketfft_internal.cp37-win_amd64.pyd',
   'EXTENSION'),
  ('numpy.linalg._umath_linalg',
   'd:\\python37\\lib\\site-packages\\numpy\\linalg\\_umath_linalg.cp37-win_amd64.pyd',
   'EXTENSION'),
  ('PIL._webp',
   'd:\\python37\\lib\\site-packages\\PIL\\_webp.cp37-win_amd64.pyd',
   'EXTENSION'),
  ('PIL._imagingtk',
   'd:\\python37\\lib\\site-packages\\PIL\\_imagingtk.cp37-win_amd64.pyd',
   'EXTENSION'),
  ('PIL._imaging',
   'd:\\python37\\lib\\site-packages\\PIL\\_imaging.cp37-win_amd64.pyd',
   'EXTENSION'),
  ('onnxruntime.capi.onnxruntime_pybind11_state',
   'd:\\python37\\lib\\site-packages\\onnxruntime\\capi\\onnxruntime_pybind11_state.pyd',
   'EXTENSION'),
  ('api-ms-win-crt-utility-l1-1-0.dll',
   'C:\\WINDOWS\\system32\\api-ms-win-crt-utility-l1-1-0.dll',
   'BINARY'),
  ('Qt5Gui.dll',
   'd:\\python37\\lib\\site-packages\\PyQt5\\Qt5\\bin\\Qt5Gui.dll',
   'BINARY'),
  ('Qt5Core.dll',
   'd:\\python37\\lib\\site-packages\\PyQt5\\Qt5\\bin\\Qt5Core.dll',
   'BINARY'),
  ('Qt5Widgets.dll',
   'd:\\python37\\lib\\site-packages\\PyQt5\\Qt5\\bin\\Qt5Widgets.dll',
   'BINARY'),
  ('VCRUNTIME140_1.dll', 'C:\\WINDOWS\\system32\\VCRUNTIME140_1.dll', 'BINARY'),
  ('Qt5Network.dll',
   'd:\\python37\\lib\\site-packages\\PyQt5\\Qt5\\bin\\Qt5Network.dll',
   'BINARY'),
  ('Qt5Quick.dll',
   'd:\\python37\\lib\\site-packages\\PyQt5\\Qt5\\bin\\Qt5Quick.dll',
   'BINARY'),
  ('Qt5WebSockets.dll',
   'd:\\python37\\lib\\site-packages\\PyQt5\\Qt5\\bin\\Qt5WebSockets.dll',
   'BINARY'),
  ('MSVCP140.dll', 'C:\\WINDOWS\\system32\\MSVCP140.dll', 'BINARY'),
  ('Qt5Svg.dll',
   'd:\\python37\\lib\\site-packages\\PyQt5\\Qt5\\bin\\Qt5Svg.dll',
   'BINARY'),
  ('Qt5DBus.dll',
   'd:\\python37\\lib\\site-packages\\PyQt5\\Qt5\\bin\\Qt5DBus.dll',
   'BINARY'),
  ('mfc140u.dll',
   'd:\\python37\\lib\\site-packages\\Pythonwin\\mfc140u.dll',
   'BINARY'),
  ('libssl-1_1.dll', 'd:\\python37\\DLLs\\libssl-1_1.dll', 'BINARY'),
  ('libcrypto-1_1.dll', 'd:\\python37\\DLLs\\libcrypto-1_1.dll', 'BINARY'),
  ('python3.dll', 'd:\\python37\\python3.dll', 'BINARY'),
  ('sqlite3.dll', 'd:\\python37\\DLLs\\sqlite3.dll', 'BINARY'),
  ('MSVCP140_1.dll',
   'd:\\python37\\lib\\site-packages\\PyQt5\\Qt5\\bin\\MSVCP140_1.dll',
   'BINARY'),
  ('Qt5QmlModels.dll',
   'd:\\python37\\lib\\site-packages\\PyQt5\\Qt5\\bin\\Qt5QmlModels.dll',
   'BINARY'),
  ('Qt5Qml.dll',
   'd:\\python37\\lib\\site-packages\\PyQt5\\Qt5\\bin\\Qt5Qml.dll',
   'BINARY'),
  ('api-ms-win-crt-multibyte-l1-1-0.dll',
   'C:\\WINDOWS\\system32\\api-ms-win-crt-multibyte-l1-1-0.dll',
   'BINARY'),
  ('base_library.zip',
   'F:\\upsec_project\\crawl_register\\weidan\\597\\归档\\build\\weidian_start\\base_library.zip',
   'DATA'),
  ('PyQt5\\Qt5\\translations\\qtbase_ca.qm',
   'D:\\python37\\lib\\site-packages\\PyQt5\\Qt5\\translations\\qtbase_ca.qm',
   'DATA'),
  ('PyQt5\\Qt5\\translations\\qtbase_ar.qm',
   'D:\\python37\\lib\\site-packages\\PyQt5\\Qt5\\translations\\qtbase_ar.qm',
   'DATA'),
  ('PyQt5\\Qt5\\translations\\qtbase_pl.qm',
   'D:\\python37\\lib\\site-packages\\PyQt5\\Qt5\\translations\\qtbase_pl.qm',
   'DATA'),
  ('PyQt5\\Qt5\\translations\\qtbase_lv.qm',
   'D:\\python37\\lib\\site-packages\\PyQt5\\Qt5\\translations\\qtbase_lv.qm',
   'DATA'),
  ('cv2\\data\\__init__.py',
   'd:\\python37\\lib\\site-packages\\cv2\\data\\__init__.py',
   'DATA'),
  ('PyQt5\\Qt5\\translations\\qtbase_zh_TW.qm',
   'D:\\python37\\lib\\site-packages\\PyQt5\\Qt5\\translations\\qtbase_zh_TW.qm',
   'DATA'),
  ('PyQt5\\Qt5\\translations\\qtbase_hu.qm',
   'D:\\python37\\lib\\site-packages\\PyQt5\\Qt5\\translations\\qtbase_hu.qm',
   'DATA'),
  ('PyQt5\\Qt5\\translations\\qtbase_da.qm',
   'D:\\python37\\lib\\site-packages\\PyQt5\\Qt5\\translations\\qtbase_da.qm',
   'DATA'),
  ('cryptography-2.3.1.dist-info\\WHEEL',
   'd:\\python37\\lib\\site-packages\\cryptography-2.3.1.dist-info\\WHEEL',
   'DATA'),
  ('PyQt5\\Qt5\\translations\\qtbase_cs.qm',
   'D:\\python37\\lib\\site-packages\\PyQt5\\Qt5\\translations\\qtbase_cs.qm',
   'DATA'),
  ('PyQt5\\Qt5\\translations\\qtbase_tr.qm',
   'D:\\python37\\lib\\site-packages\\PyQt5\\Qt5\\translations\\qtbase_tr.qm',
   'DATA'),
  ('PyQt5\\Qt5\\translations\\qtbase_ru.qm',
   'D:\\python37\\lib\\site-packages\\PyQt5\\Qt5\\translations\\qtbase_ru.qm',
   'DATA'),
  ('PyQt5\\Qt5\\translations\\qtbase_fi.qm',
   'D:\\python37\\lib\\site-packages\\PyQt5\\Qt5\\translations\\qtbase_fi.qm',
   'DATA'),
  ('PyQt5\\Qt5\\translations\\qtbase_sk.qm',
   'D:\\python37\\lib\\site-packages\\PyQt5\\Qt5\\translations\\qtbase_sk.qm',
   'DATA'),
  ('PyQt5\\Qt5\\translations\\qtbase_gd.qm',
   'D:\\python37\\lib\\site-packages\\PyQt5\\Qt5\\translations\\qtbase_gd.qm',
   'DATA'),
  ('PyQt5\\Qt5\\translations\\qtbase_en.qm',
   'D:\\python37\\lib\\site-packages\\PyQt5\\Qt5\\translations\\qtbase_en.qm',
   'DATA'),
  ('PyQt5\\Qt5\\translations\\qtbase_bg.qm',
   'D:\\python37\\lib\\site-packages\\PyQt5\\Qt5\\translations\\qtbase_bg.qm',
   'DATA'),
  ('certifi\\cacert.pem',
   'd:\\python37\\lib\\site-packages\\certifi\\cacert.pem',
   'DATA'),
  ('cryptography-2.3.1.dist-info\\INSTALLER',
   'd:\\python37\\lib\\site-packages\\cryptography-2.3.1.dist-info\\INSTALLER',
   'DATA'),
  ('cv2\\__init__.py',
   'd:\\python37\\lib\\site-packages\\cv2\\__init__.py',
   'DATA'),
  ('cv2\\version.py',
   'd:\\python37\\lib\\site-packages\\cv2\\version.py',
   'DATA'),
  ('PyQt5\\Qt5\\translations\\qtbase_ja.qm',
   'D:\\python37\\lib\\site-packages\\PyQt5\\Qt5\\translations\\qtbase_ja.qm',
   'DATA'),
  ('PyQt5\\Qt5\\translations\\qtbase_he.qm',
   'D:\\python37\\lib\\site-packages\\PyQt5\\Qt5\\translations\\qtbase_he.qm',
   'DATA'),
  ('cryptography-2.3.1.dist-info\\RECORD',
   'd:\\python37\\lib\\site-packages\\cryptography-2.3.1.dist-info\\RECORD',
   'DATA'),
  ('PyQt5\\Qt5\\translations\\qtbase_es.qm',
   'D:\\python37\\lib\\site-packages\\PyQt5\\Qt5\\translations\\qtbase_es.qm',
   'DATA'),
  ('PyQt5\\Qt5\\translations\\qtbase_uk.qm',
   'D:\\python37\\lib\\site-packages\\PyQt5\\Qt5\\translations\\qtbase_uk.qm',
   'DATA'),
  ('PyQt5\\Qt5\\translations\\qtbase_fr.qm',
   'D:\\python37\\lib\\site-packages\\PyQt5\\Qt5\\translations\\qtbase_fr.qm',
   'DATA'),
  ('cryptography-2.3.1.dist-info\\top_level.txt',
   'd:\\python37\\lib\\site-packages\\cryptography-2.3.1.dist-info\\top_level.txt',
   'DATA'),
  ('PyQt5\\Qt5\\translations\\qtbase_it.qm',
   'D:\\python37\\lib\\site-packages\\PyQt5\\Qt5\\translations\\qtbase_it.qm',
   'DATA'),
  ('PyQt5\\Qt5\\translations\\qtbase_ko.qm',
   'D:\\python37\\lib\\site-packages\\PyQt5\\Qt5\\translations\\qtbase_ko.qm',
   'DATA'),
  ('cryptography-2.3.1.dist-info\\METADATA',
   'd:\\python37\\lib\\site-packages\\cryptography-2.3.1.dist-info\\METADATA',
   'DATA'),
  ('PyQt5\\Qt5\\translations\\qtbase_de.qm',
   'D:\\python37\\lib\\site-packages\\PyQt5\\Qt5\\translations\\qtbase_de.qm',
   'DATA'),
  ('setuptools-56.1.0.dist-info\\LICENSE',
   'd:\\python37\\lib\\site-packages\\setuptools-56.1.0.dist-info\\LICENSE',
   'DATA'),
  ('pyinstaller-5.3.dist-info\\INSTALLER',
   'd:\\python37\\lib\\site-packages\\pyinstaller-5.3.dist-info\\INSTALLER',
   'DATA'),
  ('setuptools-56.1.0.dist-info\\entry_points.txt',
   'd:\\python37\\lib\\site-packages\\setuptools-56.1.0.dist-info\\entry_points.txt',
   'DATA'),
  ('wheel-0.36.2.dist-info\\LICENSE.txt',
   'd:\\python37\\lib\\site-packages\\wheel-0.36.2.dist-info\\LICENSE.txt',
   'DATA'),
  ('wheel-0.36.2.dist-info\\entry_points.txt',
   'd:\\python37\\lib\\site-packages\\wheel-0.36.2.dist-info\\entry_points.txt',
   'DATA'),
  ('pyinstaller-5.3.dist-info\\COPYING.txt',
   'd:\\python37\\lib\\site-packages\\pyinstaller-5.3.dist-info\\COPYING.txt',
   'DATA'),
  ('pyinstaller-5.3.dist-info\\METADATA',
   'd:\\python37\\lib\\site-packages\\pyinstaller-5.3.dist-info\\METADATA',
   'DATA'),
  ('altgraph-0.17.2.dist-info\\LICENSE',
   'd:\\python37\\lib\\site-packages\\altgraph-0.17.2.dist-info\\LICENSE',
   'DATA'),
  ('wheel-0.36.2.dist-info\\METADATA',
   'd:\\python37\\lib\\site-packages\\wheel-0.36.2.dist-info\\METADATA',
   'DATA'),
  ('setuptools-56.1.0.dist-info\\dependency_links.txt',
   'd:\\python37\\lib\\site-packages\\setuptools-56.1.0.dist-info\\dependency_links.txt',
   'DATA'),
  ('wheel-0.36.2.dist-info\\INSTALLER',
   'd:\\python37\\lib\\site-packages\\wheel-0.36.2.dist-info\\INSTALLER',
   'DATA'),
  ('setuptools-56.1.0.dist-info\\INSTALLER',
   'd:\\python37\\lib\\site-packages\\setuptools-56.1.0.dist-info\\INSTALLER',
   'DATA'),
  ('altgraph-0.17.2.dist-info\\zip-safe',
   'd:\\python37\\lib\\site-packages\\altgraph-0.17.2.dist-info\\zip-safe',
   'DATA'),
  ('pyinstaller-5.3.dist-info\\entry_points.txt',
   'd:\\python37\\lib\\site-packages\\pyinstaller-5.3.dist-info\\entry_points.txt',
   'DATA'),
  ('wheel-0.36.2.dist-info\\top_level.txt',
   'd:\\python37\\lib\\site-packages\\wheel-0.36.2.dist-info\\top_level.txt',
   'DATA'),
  ('wheel-0.36.2.dist-info\\RECORD',
   'd:\\python37\\lib\\site-packages\\wheel-0.36.2.dist-info\\RECORD',
   'DATA'),
  ('altgraph-0.17.2.dist-info\\METADATA',
   'd:\\python37\\lib\\site-packages\\altgraph-0.17.2.dist-info\\METADATA',
   'DATA'),
  ('altgraph-0.17.2.dist-info\\top_level.txt',
   'd:\\python37\\lib\\site-packages\\altgraph-0.17.2.dist-info\\top_level.txt',
   'DATA'),
  ('pyinstaller-5.3.dist-info\\WHEEL',
   'd:\\python37\\lib\\site-packages\\pyinstaller-5.3.dist-info\\WHEEL',
   'DATA'),
  ('setuptools-56.1.0.dist-info\\METADATA',
   'd:\\python37\\lib\\site-packages\\setuptools-56.1.0.dist-info\\METADATA',
   'DATA'),
  ('altgraph-0.17.2.dist-info\\INSTALLER',
   'd:\\python37\\lib\\site-packages\\altgraph-0.17.2.dist-info\\INSTALLER',
   'DATA'),
  ('setuptools-56.1.0.dist-info\\top_level.txt',
   'd:\\python37\\lib\\site-packages\\setuptools-56.1.0.dist-info\\top_level.txt',
   'DATA'),
  ('pyinstaller-5.3.dist-info\\top_level.txt',
   'd:\\python37\\lib\\site-packages\\pyinstaller-5.3.dist-info\\top_level.txt',
   'DATA'),
  ('altgraph-0.17.2.dist-info\\RECORD',
   'd:\\python37\\lib\\site-packages\\altgraph-0.17.2.dist-info\\RECORD',
   'DATA'),
  ('pyinstaller-5.3.dist-info\\RECORD',
   'd:\\python37\\lib\\site-packages\\pyinstaller-5.3.dist-info\\RECORD',
   'DATA'),
  ('setuptools-56.1.0.dist-info\\WHEEL',
   'd:\\python37\\lib\\site-packages\\setuptools-56.1.0.dist-info\\WHEEL',
   'DATA'),
  ('setuptools-56.1.0.dist-info\\RECORD',
   'd:\\python37\\lib\\site-packages\\setuptools-56.1.0.dist-info\\RECORD',
   'DATA'),
  ('wheel-0.36.2.dist-info\\WHEEL',
   'd:\\python37\\lib\\site-packages\\wheel-0.36.2.dist-info\\WHEEL',
   'DATA'),
  ('altgraph-0.17.2.dist-info\\WHEEL',
   'd:\\python37\\lib\\site-packages\\altgraph-0.17.2.dist-info\\WHEEL',
   'DATA')],)
