('F:\\upsec_project\\crawl_register\\weidan\\597\\归档\\build\\weidian_start\\weidian_start.pkg',
 {'BINARY': 1,
  'DATA': 1,
  'EXECUTABLE': 1,
  'EXTENSION': 1,
  'PYMODULE': 1,
  'PYSOURCE': 1,
  'PYZ': 0,
  'SPLASH': 1},
 [('PYZ-00.pyz',
   'F:\\upsec_project\\crawl_register\\weidan\\597\\归档\\build\\weidian_start\\PYZ-00.pyz',
   'PYZ'),
  ('struct',
   'F:\\upsec_project\\crawl_register\\weidan\\597\\归档\\build\\weidian_start\\localpycs\\struct.pyc',
   'PYMODULE'),
  ('pyimod01_archive',
   'F:\\upsec_project\\crawl_register\\weidan\\597\\归档\\build\\weidian_start\\localpycs\\pyimod01_archive.pyc',
   'PYMODULE'),
  ('pyimod02_importers',
   'F:\\upsec_project\\crawl_register\\weidan\\597\\归档\\build\\weidian_start\\localpycs\\pyimod02_importers.pyc',
   'PYMODULE'),
  ('pyimod03_ctypes',
   'F:\\upsec_project\\crawl_register\\weidan\\597\\归档\\build\\weidian_start\\localpycs\\pyimod03_ctypes.pyc',
   'PYMODULE'),
  ('pyiboot01_bootstrap',
   'd:\\python37\\lib\\site-packages\\PyInstaller\\loader\\pyiboot01_bootstrap.py',
   'PYSOURCE'),
  ('pyi_rth_pyqt5',
   'd:\\python37\\lib\\site-packages\\PyInstaller\\hooks\\rthooks\\pyi_rth_pyqt5.py',
   'PYSOURCE'),
  ('pyi_rth_pkgutil',
   'd:\\python37\\lib\\site-packages\\PyInstaller\\hooks\\rthooks\\pyi_rth_pkgutil.py',
   'PYSOURCE'),
  ('pyi_rth_inspect',
   'd:\\python37\\lib\\site-packages\\PyInstaller\\hooks\\rthooks\\pyi_rth_inspect.py',
   'PYSOURCE'),
  ('pyi_rth_subprocess',
   'd:\\python37\\lib\\site-packages\\PyInstaller\\hooks\\rthooks\\pyi_rth_subprocess.py',
   'PYSOURCE'),
  ('pyi_rth_multiprocessing',
   'd:\\python37\\lib\\site-packages\\PyInstaller\\hooks\\rthooks\\pyi_rth_multiprocessing.py',
   'PYSOURCE'),
  ('pyi_rth_win32api',
   'd:\\python37\\lib\\site-packages\\PyInstaller\\hooks\\rthooks\\pyi_rth_win32api.py',
   'PYSOURCE'),
  ('pyi_rth_pkgres',
   'd:\\python37\\lib\\site-packages\\PyInstaller\\hooks\\rthooks\\pyi_rth_pkgres.py',
   'PYSOURCE'),
  ('pyi_rth_win32comgenpy',
   'd:\\python37\\lib\\site-packages\\PyInstaller\\hooks\\rthooks\\pyi_rth_win32comgenpy.py',
   'PYSOURCE'),
  ('weidian_start',
   'F:\\upsec_project\\crawl_register\\weidan\\597\\归档\\weidian_start.py',
   'PYSOURCE')],
 True,
 False,
 False,
 [],
 None,
 None,
 None)
