('F:\\upsec_project\\crawl_register\\weidan\\597\\归档\\build\\weidian_start\\PYZ-00.pyz',
 [('win32com',
   'd:\\python37\\lib\\site-packages\\win32com\\__init__.py',
   'PYMODULE'),
  ('win32com.server.util',
   'd:\\python37\\lib\\site-packages\\win32com\\server\\util.py',
   'PYMODULE'),
  ('win32com.server.dispatcher',
   'd:\\python37\\lib\\site-packages\\win32com\\server\\dispatcher.py',
   'PYMODULE'),
  ('win32traceutil',
   'd:\\python37\\lib\\site-packages\\win32\\lib\\win32traceutil.py',
   'PYMODULE'),
  ('win32com.util',
   'd:\\python37\\lib\\site-packages\\win32com\\util.py',
   'PYMODULE'),
  ('win32con',
   'd:\\python37\\lib\\site-packages\\win32\\lib\\win32con.py',
   'PYMODULE'),
  ('win32com.server.exception',
   'd:\\python37\\lib\\site-packages\\win32com\\server\\exception.py',
   'PYMODULE'),
  ('winerror',
   'd:\\python37\\lib\\site-packages\\win32\\lib\\winerror.py',
   'PYMODULE'),
  ('win32com.server.policy',
   'd:\\python37\\lib\\site-packages\\win32com\\server\\policy.py',
   'PYMODULE'),
  ('win32com.client',
   'd:\\python37\\lib\\site-packages\\win32com\\client\\__init__.py',
   'PYMODULE'),
  ('win32com.client.makepy',
   'd:\\python37\\lib\\site-packages\\win32com\\client\\makepy.py',
   'PYMODULE'),
  ('getopt', 'd:\\python37\\lib\\getopt.py', 'PYMODULE'),
  ('gettext', 'd:\\python37\\lib\\gettext.py', 'PYMODULE'),
  ('copy', 'd:\\python37\\lib\\copy.py', 'PYMODULE'),
  ('struct', 'd:\\python37\\lib\\struct.py', 'PYMODULE'),
  ('pywin.dialogs.status',
   'd:\\python37\\lib\\site-packages\\Pythonwin\\pywin\\dialogs\\status.py',
   'PYMODULE'),
  ('threading', 'd:\\python37\\lib\\threading.py', 'PYMODULE'),
  ('_threading_local', 'd:\\python37\\lib\\_threading_local.py', 'PYMODULE'),
  ('contextlib', 'd:\\python37\\lib\\contextlib.py', 'PYMODULE'),
  ('pywin.mfc.thread',
   'd:\\python37\\lib\\site-packages\\Pythonwin\\pywin\\mfc\\thread.py',
   'PYMODULE'),
  ('pywin.mfc.object',
   'd:\\python37\\lib\\site-packages\\Pythonwin\\pywin\\mfc\\object.py',
   'PYMODULE'),
  ('pywin.mfc.dialog',
   'd:\\python37\\lib\\site-packages\\Pythonwin\\pywin\\mfc\\dialog.py',
   'PYMODULE'),
  ('pywin.mfc.window',
   'd:\\python37\\lib\\site-packages\\Pythonwin\\pywin\\mfc\\window.py',
   'PYMODULE'),
  ('pywin.mfc',
   'd:\\python37\\lib\\site-packages\\Pythonwin\\pywin\\mfc\\__init__.py',
   'PYMODULE'),
  ('pywin.dialogs',
   'd:\\python37\\lib\\site-packages\\Pythonwin\\pywin\\dialogs\\__init__.py',
   'PYMODULE'),
  ('pywin',
   'd:\\python37\\lib\\site-packages\\Pythonwin\\pywin\\__init__.py',
   'PYMODULE'),
  ('win32com.client.gencache',
   'd:\\python37\\lib\\site-packages\\win32com\\client\\gencache.py',
   'PYMODULE'),
  ('zipfile', 'd:\\python37\\lib\\zipfile.py', 'PYMODULE'),
  ('argparse', 'd:\\python37\\lib\\argparse.py', 'PYMODULE'),
  ('textwrap', 'd:\\python37\\lib\\textwrap.py', 'PYMODULE'),
  ('py_compile', 'd:\\python37\\lib\\py_compile.py', 'PYMODULE'),
  ('importlib.machinery',
   'd:\\python37\\lib\\importlib\\machinery.py',
   'PYMODULE'),
  ('importlib', 'd:\\python37\\lib\\importlib\\__init__.py', 'PYMODULE'),
  ('importlib.abc', 'd:\\python37\\lib\\importlib\\abc.py', 'PYMODULE'),
  ('importlib._bootstrap',
   'd:\\python37\\lib\\importlib\\_bootstrap.py',
   'PYMODULE'),
  ('importlib._bootstrap_external',
   'd:\\python37\\lib\\importlib\\_bootstrap_external.py',
   'PYMODULE'),
  ('lzma', 'd:\\python37\\lib\\lzma.py', 'PYMODULE'),
  ('_compression', 'd:\\python37\\lib\\_compression.py', 'PYMODULE'),
  ('bz2', 'd:\\python37\\lib\\bz2.py', 'PYMODULE'),
  ('importlib.util', 'd:\\python37\\lib\\importlib\\util.py', 'PYMODULE'),
  ('pickle', 'd:\\python37\\lib\\pickle.py', 'PYMODULE'),
  ('pprint', 'd:\\python37\\lib\\pprint.py', 'PYMODULE'),
  ('_compat_pickle', 'd:\\python37\\lib\\_compat_pickle.py', 'PYMODULE'),
  ('glob', 'd:\\python37\\lib\\glob.py', 'PYMODULE'),
  ('win32com.client.selecttlb',
   'd:\\python37\\lib\\site-packages\\win32com\\client\\selecttlb.py',
   'PYMODULE'),
  ('pywin.dialogs.list',
   'd:\\python37\\lib\\site-packages\\Pythonwin\\pywin\\dialogs\\list.py',
   'PYMODULE'),
  ('commctrl',
   'd:\\python37\\lib\\site-packages\\win32\\lib\\commctrl.py',
   'PYMODULE'),
  ('win32com.client.genpy',
   'd:\\python37\\lib\\site-packages\\win32com\\client\\genpy.py',
   'PYMODULE'),
  ('win32com.client.CLSIDToClass',
   'd:\\python37\\lib\\site-packages\\win32com\\client\\CLSIDToClass.py',
   'PYMODULE'),
  ('win32com.client.dynamic',
   'd:\\python37\\lib\\site-packages\\win32com\\client\\dynamic.py',
   'PYMODULE'),
  ('win32com.client.build',
   'd:\\python37\\lib\\site-packages\\win32com\\client\\build.py',
   'PYMODULE'),
  ('datetime', 'd:\\python37\\lib\\datetime.py', 'PYMODULE'),
  ('_strptime', 'd:\\python37\\lib\\_strptime.py', 'PYMODULE'),
  ('calendar', 'd:\\python37\\lib\\calendar.py', 'PYMODULE'),
  ('pywintypes',
   'd:\\python37\\lib\\site-packages\\win32\\lib\\pywintypes.py',
   'PYMODULE'),
  ('distutils.sysconfig',
   'd:\\python37\\lib\\distutils\\sysconfig.py',
   'PYMODULE'),
  ('distutils', 'd:\\python37\\lib\\distutils\\__init__.py', 'PYMODULE'),
  ('distutils.archive_util',
   'd:\\python37\\lib\\distutils\\archive_util.py',
   'PYMODULE'),
  ('tarfile', 'd:\\python37\\lib\\tarfile.py', 'PYMODULE'),
  ('distutils.dir_util',
   'd:\\python37\\lib\\distutils\\dir_util.py',
   'PYMODULE'),
  ('distutils.file_util',
   'd:\\python37\\lib\\distutils\\file_util.py',
   'PYMODULE'),
  ('distutils.dep_util',
   'd:\\python37\\lib\\distutils\\dep_util.py',
   'PYMODULE'),
  ('distutils.spawn', 'd:\\python37\\lib\\distutils\\spawn.py', 'PYMODULE'),
  ('distutils.debug', 'd:\\python37\\lib\\distutils\\debug.py', 'PYMODULE'),
  ('distutils.log', 'd:\\python37\\lib\\distutils\\log.py', 'PYMODULE'),
  ('distutils.text_file',
   'd:\\python37\\lib\\distutils\\text_file.py',
   'PYMODULE'),
  ('_osx_support', 'd:\\python37\\lib\\_osx_support.py', 'PYMODULE'),
  ('distutils.errors', 'd:\\python37\\lib\\distutils\\errors.py', 'PYMODULE'),
  ('win32com.server',
   'd:\\python37\\lib\\site-packages\\win32com\\server\\__init__.py',
   'PYMODULE'),
  ('win32com.universal',
   'd:\\python37\\lib\\site-packages\\win32com\\universal.py',
   'PYMODULE'),
  ('win32com.client.util',
   'd:\\python37\\lib\\site-packages\\win32com\\client\\util.py',
   'PYMODULE'),
  ('imp', 'd:\\python37\\lib\\imp.py', 'PYMODULE'),
  ('pythoncom', 'd:\\python37\\lib\\site-packages\\pythoncom.py', 'PYMODULE'),
  ('tempfile', 'd:\\python37\\lib\\tempfile.py', 'PYMODULE'),
  ('shutil', 'd:\\python37\\lib\\shutil.py', 'PYMODULE'),
  ('pkg_resources',
   'd:\\python37\\lib\\site-packages\\pkg_resources\\__init__.py',
   'PYMODULE'),
  ('packaging.version',
   'd:\\python37\\lib\\site-packages\\packaging\\version.py',
   'PYMODULE'),
  ('typing', 'd:\\python37\\lib\\typing.py', 'PYMODULE'),
  ('__future__', 'd:\\python37\\lib\\__future__.py', 'PYMODULE'),
  ('packaging.utils',
   'd:\\python37\\lib\\site-packages\\packaging\\utils.py',
   'PYMODULE'),
  ('packaging.tags',
   'd:\\python37\\lib\\site-packages\\packaging\\tags.py',
   'PYMODULE'),
  ('ctypes', 'd:\\python37\\lib\\ctypes\\__init__.py', 'PYMODULE'),
  ('ctypes._endian', 'd:\\python37\\lib\\ctypes\\_endian.py', 'PYMODULE'),
  ('logging', 'd:\\python37\\lib\\logging\\__init__.py', 'PYMODULE'),
  ('distutils.util', 'd:\\python37\\lib\\distutils\\util.py', 'PYMODULE'),
  ('distutils.filelist',
   'd:\\python37\\lib\\distutils\\filelist.py',
   'PYMODULE'),
  ('subprocess', 'd:\\python37\\lib\\subprocess.py', 'PYMODULE'),
  ('selectors', 'd:\\python37\\lib\\selectors.py', 'PYMODULE'),
  ('signal', 'd:\\python37\\lib\\signal.py', 'PYMODULE'),
  ('packaging.specifiers',
   'd:\\python37\\lib\\site-packages\\packaging\\specifiers.py',
   'PYMODULE'),
  ('packaging.requirements',
   'd:\\python37\\lib\\site-packages\\packaging\\requirements.py',
   'PYMODULE'),
  ('pyparsing', 'd:\\python37\\lib\\site-packages\\pyparsing.py', 'PYMODULE'),
  ('uuid', 'd:\\python37\\lib\\uuid.py', 'PYMODULE'),
  ('ctypes.util', 'd:\\python37\\lib\\ctypes\\util.py', 'PYMODULE'),
  ('ctypes._aix', 'd:\\python37\\lib\\ctypes\\_aix.py', 'PYMODULE'),
  ('ctypes.macholib.dyld',
   'd:\\python37\\lib\\ctypes\\macholib\\dyld.py',
   'PYMODULE'),
  ('ctypes.macholib',
   'd:\\python37\\lib\\ctypes\\macholib\\__init__.py',
   'PYMODULE'),
  ('ctypes.macholib.dylib',
   'd:\\python37\\lib\\ctypes\\macholib\\dylib.py',
   'PYMODULE'),
  ('ctypes.macholib.framework',
   'd:\\python37\\lib\\ctypes\\macholib\\framework.py',
   'PYMODULE'),
  ('netbios',
   'd:\\python37\\lib\\site-packages\\win32\\lib\\netbios.py',
   'PYMODULE'),
  ('socket', 'd:\\python37\\lib\\socket.py', 'PYMODULE'),
  ('pdb', 'd:\\python37\\lib\\pdb.py', 'PYMODULE'),
  ('pydoc', 'd:\\python37\\lib\\pydoc.py', 'PYMODULE'),
  ('webbrowser', 'd:\\python37\\lib\\webbrowser.py', 'PYMODULE'),
  ('email.message', 'd:\\python37\\lib\\email\\message.py', 'PYMODULE'),
  ('email.policy', 'd:\\python37\\lib\\email\\policy.py', 'PYMODULE'),
  ('email.contentmanager',
   'd:\\python37\\lib\\email\\contentmanager.py',
   'PYMODULE'),
  ('email.quoprimime', 'd:\\python37\\lib\\email\\quoprimime.py', 'PYMODULE'),
  ('email.headerregistry',
   'd:\\python37\\lib\\email\\headerregistry.py',
   'PYMODULE'),
  ('email._header_value_parser',
   'd:\\python37\\lib\\email\\_header_value_parser.py',
   'PYMODULE'),
  ('email.iterators', 'd:\\python37\\lib\\email\\iterators.py', 'PYMODULE'),
  ('email.generator', 'd:\\python37\\lib\\email\\generator.py', 'PYMODULE'),
  ('email._encoded_words',
   'd:\\python37\\lib\\email\\_encoded_words.py',
   'PYMODULE'),
  ('email.charset', 'd:\\python37\\lib\\email\\charset.py', 'PYMODULE'),
  ('email.encoders', 'd:\\python37\\lib\\email\\encoders.py', 'PYMODULE'),
  ('email.base64mime', 'd:\\python37\\lib\\email\\base64mime.py', 'PYMODULE'),
  ('email._policybase', 'd:\\python37\\lib\\email\\_policybase.py', 'PYMODULE'),
  ('email.header', 'd:\\python37\\lib\\email\\header.py', 'PYMODULE'),
  ('email.errors', 'd:\\python37\\lib\\email\\errors.py', 'PYMODULE'),
  ('email.utils', 'd:\\python37\\lib\\email\\utils.py', 'PYMODULE'),
  ('email._parseaddr', 'd:\\python37\\lib\\email\\_parseaddr.py', 'PYMODULE'),
  ('email', 'd:\\python37\\lib\\email\\__init__.py', 'PYMODULE'),
  ('quopri', 'd:\\python37\\lib\\quopri.py', 'PYMODULE'),
  ('uu', 'd:\\python37\\lib\\uu.py', 'PYMODULE'),
  ('optparse', 'd:\\python37\\lib\\optparse.py', 'PYMODULE'),
  ('http.server', 'd:\\python37\\lib\\http\\server.py', 'PYMODULE'),
  ('http', 'd:\\python37\\lib\\http\\__init__.py', 'PYMODULE'),
  ('socketserver', 'd:\\python37\\lib\\socketserver.py', 'PYMODULE'),
  ('mimetypes', 'd:\\python37\\lib\\mimetypes.py', 'PYMODULE'),
  ('http.client', 'd:\\python37\\lib\\http\\client.py', 'PYMODULE'),
  ('ssl', 'd:\\python37\\lib\\ssl.py', 'PYMODULE'),
  ('html', 'd:\\python37\\lib\\html\\__init__.py', 'PYMODULE'),
  ('html.entities', 'd:\\python37\\lib\\html\\entities.py', 'PYMODULE'),
  ('pydoc_data.topics', 'd:\\python37\\lib\\pydoc_data\\topics.py', 'PYMODULE'),
  ('pydoc_data', 'd:\\python37\\lib\\pydoc_data\\__init__.py', 'PYMODULE'),
  ('tty', 'd:\\python37\\lib\\tty.py', 'PYMODULE'),
  ('runpy', 'd:\\python37\\lib\\runpy.py', 'PYMODULE'),
  ('shlex', 'd:\\python37\\lib\\shlex.py', 'PYMODULE'),
  ('readline', 'd:\\python37\\lib\\site-packages\\readline.py', 'PYMODULE'),
  ('pyreadline.console',
   'd:\\python37\\lib\\site-packages\\pyreadline\\console\\__init__.py',
   'PYMODULE'),
  ('pyreadline.console.console',
   'd:\\python37\\lib\\site-packages\\pyreadline\\console\\console.py',
   'PYMODULE'),
  ('pyreadline.console.event',
   'd:\\python37\\lib\\site-packages\\pyreadline\\console\\event.py',
   'PYMODULE'),
  ('ctypes.wintypes', 'd:\\python37\\lib\\ctypes\\wintypes.py', 'PYMODULE'),
  ('pyreadline.console.ansi',
   'd:\\python37\\lib\\site-packages\\pyreadline\\console\\ansi.py',
   'PYMODULE'),
  ('pyreadline.keysyms',
   'd:\\python37\\lib\\site-packages\\pyreadline\\keysyms\\__init__.py',
   'PYMODULE'),
  ('pyreadline.keysyms.keysyms',
   'd:\\python37\\lib\\site-packages\\pyreadline\\keysyms\\keysyms.py',
   'PYMODULE'),
  ('pyreadline.keysyms.common',
   'd:\\python37\\lib\\site-packages\\pyreadline\\keysyms\\common.py',
   'PYMODULE'),
  ('pyreadline.keysyms.ironpython_keysyms',
   'd:\\python37\\lib\\site-packages\\pyreadline\\keysyms\\ironpython_keysyms.py',
   'PYMODULE'),
  ('pyreadline.keysyms.winconstants',
   'd:\\python37\\lib\\site-packages\\pyreadline\\keysyms\\winconstants.py',
   'PYMODULE'),
  ('pyreadline.logger',
   'd:\\python37\\lib\\site-packages\\pyreadline\\logger.py',
   'PYMODULE'),
  ('logging.handlers', 'd:\\python37\\lib\\logging\\handlers.py', 'PYMODULE'),
  ('win32evtlogutil',
   'd:\\python37\\lib\\site-packages\\win32\\lib\\win32evtlogutil.py',
   'PYMODULE'),
  ('smtplib', 'd:\\python37\\lib\\smtplib.py', 'PYMODULE'),
  ('hmac', 'd:\\python37\\lib\\hmac.py', 'PYMODULE'),
  ('queue', 'd:\\python37\\lib\\queue.py', 'PYMODULE'),
  ('pyreadline.unicode_helper',
   'd:\\python37\\lib\\site-packages\\pyreadline\\unicode_helper.py',
   'PYMODULE'),
  ('pyreadline.py3k_compat',
   'd:\\python37\\lib\\site-packages\\pyreadline\\py3k_compat.py',
   'PYMODULE'),
  ('pyreadline.console.ironpython_console',
   'd:\\python37\\lib\\site-packages\\pyreadline\\console\\ironpython_console.py',
   'PYMODULE'),
  ('pyreadline',
   'd:\\python37\\lib\\site-packages\\pyreadline\\__init__.py',
   'PYMODULE'),
  ('pyreadline.release',
   'd:\\python37\\lib\\site-packages\\pyreadline\\release.py',
   'PYMODULE'),
  ('pyreadline.modes',
   'd:\\python37\\lib\\site-packages\\pyreadline\\modes\\__init__.py',
   'PYMODULE'),
  ('pyreadline.modes.vi',
   'd:\\python37\\lib\\site-packages\\pyreadline\\modes\\vi.py',
   'PYMODULE'),
  ('pyreadline.lineeditor.history',
   'd:\\python37\\lib\\site-packages\\pyreadline\\lineeditor\\history.py',
   'PYMODULE'),
  ('pyreadline.lineeditor.lineobj',
   'd:\\python37\\lib\\site-packages\\pyreadline\\lineeditor\\lineobj.py',
   'PYMODULE'),
  ('pyreadline.lineeditor.wordmatcher',
   'd:\\python37\\lib\\site-packages\\pyreadline\\lineeditor\\wordmatcher.py',
   'PYMODULE'),
  ('pyreadline.modes.notemacs',
   'd:\\python37\\lib\\site-packages\\pyreadline\\modes\\notemacs.py',
   'PYMODULE'),
  ('pyreadline.modes.emacs',
   'd:\\python37\\lib\\site-packages\\pyreadline\\modes\\emacs.py',
   'PYMODULE'),
  ('pyreadline.modes.basemode',
   'd:\\python37\\lib\\site-packages\\pyreadline\\modes\\basemode.py',
   'PYMODULE'),
  ('pyreadline.error',
   'd:\\python37\\lib\\site-packages\\pyreadline\\error.py',
   'PYMODULE'),
  ('pyreadline.lineeditor',
   'd:\\python37\\lib\\site-packages\\pyreadline\\lineeditor\\__init__.py',
   'PYMODULE'),
  ('pyreadline.clipboard',
   'd:\\python37\\lib\\site-packages\\pyreadline\\clipboard\\__init__.py',
   'PYMODULE'),
  ('pyreadline.clipboard.win32_clipboard',
   'd:\\python37\\lib\\site-packages\\pyreadline\\clipboard\\win32_clipboard.py',
   'PYMODULE'),
  ('pyreadline.clipboard.no_clipboard',
   'd:\\python37\\lib\\site-packages\\pyreadline\\clipboard\\no_clipboard.py',
   'PYMODULE'),
  ('pyreadline.clipboard.ironpython_clipboard',
   'd:\\python37\\lib\\site-packages\\pyreadline\\clipboard\\ironpython_clipboard.py',
   'PYMODULE'),
  ('pyreadline.rlmain',
   'd:\\python37\\lib\\site-packages\\pyreadline\\rlmain.py',
   'PYMODULE'),
  ('code', 'd:\\python37\\lib\\code.py', 'PYMODULE'),
  ('codeop', 'd:\\python37\\lib\\codeop.py', 'PYMODULE'),
  ('dis', 'd:\\python37\\lib\\dis.py', 'PYMODULE'),
  ('opcode', 'd:\\python37\\lib\\opcode.py', 'PYMODULE'),
  ('bdb', 'd:\\python37\\lib\\bdb.py', 'PYMODULE'),
  ('cmd', 'd:\\python37\\lib\\cmd.py', 'PYMODULE'),
  ('packaging.markers',
   'd:\\python37\\lib\\site-packages\\packaging\\markers.py',
   'PYMODULE'),
  ('packaging._typing',
   'd:\\python37\\lib\\site-packages\\packaging\\_typing.py',
   'PYMODULE'),
  ('packaging._structures',
   'd:\\python37\\lib\\site-packages\\packaging\\_structures.py',
   'PYMODULE'),
  ('packaging._compat',
   'd:\\python37\\lib\\site-packages\\packaging\\_compat.py',
   'PYMODULE'),
  ('packaging.__about__',
   'd:\\python37\\lib\\site-packages\\packaging\\__about__.py',
   'PYMODULE'),
  ('packaging',
   'd:\\python37\\lib\\site-packages\\packaging\\__init__.py',
   'PYMODULE'),
  ('pkg_resources._vendor.pyparsing',
   'd:\\python37\\lib\\site-packages\\pkg_resources\\_vendor\\pyparsing.py',
   'PYMODULE'),
  ('pkg_resources._vendor.packaging.version',
   'd:\\python37\\lib\\site-packages\\pkg_resources\\_vendor\\packaging\\version.py',
   'PYMODULE'),
  ('pkg_resources._vendor.packaging.utils',
   'd:\\python37\\lib\\site-packages\\pkg_resources\\_vendor\\packaging\\utils.py',
   'PYMODULE'),
  ('pkg_resources._vendor.packaging.tags',
   'd:\\python37\\lib\\site-packages\\pkg_resources\\_vendor\\packaging\\tags.py',
   'PYMODULE'),
  ('pkg_resources._vendor.packaging.specifiers',
   'd:\\python37\\lib\\site-packages\\pkg_resources\\_vendor\\packaging\\specifiers.py',
   'PYMODULE'),
  ('pkg_resources._vendor.packaging.requirements',
   'd:\\python37\\lib\\site-packages\\pkg_resources\\_vendor\\packaging\\requirements.py',
   'PYMODULE'),
  ('pkg_resources._vendor.packaging.markers',
   'd:\\python37\\lib\\site-packages\\pkg_resources\\_vendor\\packaging\\markers.py',
   'PYMODULE'),
  ('pkg_resources._vendor.packaging._typing',
   'd:\\python37\\lib\\site-packages\\pkg_resources\\_vendor\\packaging\\_typing.py',
   'PYMODULE'),
  ('pkg_resources._vendor.packaging._structures',
   'd:\\python37\\lib\\site-packages\\pkg_resources\\_vendor\\packaging\\_structures.py',
   'PYMODULE'),
  ('pkg_resources._vendor.packaging._compat',
   'd:\\python37\\lib\\site-packages\\pkg_resources\\_vendor\\packaging\\_compat.py',
   'PYMODULE'),
  ('pkg_resources._vendor.packaging.__about__',
   'd:\\python37\\lib\\site-packages\\pkg_resources\\_vendor\\packaging\\__about__.py',
   'PYMODULE'),
  ('pkg_resources._vendor.packaging',
   'd:\\python37\\lib\\site-packages\\pkg_resources\\_vendor\\packaging\\__init__.py',
   'PYMODULE'),
  ('pkg_resources._vendor.appdirs',
   'd:\\python37\\lib\\site-packages\\pkg_resources\\_vendor\\appdirs.py',
   'PYMODULE'),
  ('win32com.shell.shellcon',
   'd:\\python37\\lib\\site-packages\\win32comext\\shell\\shellcon.py',
   'PYMODULE'),
  ('win32com.shell',
   'd:\\python37\\lib\\site-packages\\win32comext\\shell\\__init__.py',
   'PYMODULE'),
  ('pkg_resources._vendor',
   'd:\\python37\\lib\\site-packages\\pkg_resources\\_vendor\\__init__.py',
   'PYMODULE'),
  ('sysconfig', 'd:\\python37\\lib\\sysconfig.py', 'PYMODULE'),
  ('pkg_resources.extern',
   'd:\\python37\\lib\\site-packages\\pkg_resources\\extern\\__init__.py',
   'PYMODULE'),
  ('inspect', 'd:\\python37\\lib\\inspect.py', 'PYMODULE'),
  ('ast', 'd:\\python37\\lib\\ast.py', 'PYMODULE'),
  ('email.parser', 'd:\\python37\\lib\\email\\parser.py', 'PYMODULE'),
  ('email.feedparser', 'd:\\python37\\lib\\email\\feedparser.py', 'PYMODULE'),
  ('plistlib', 'd:\\python37\\lib\\plistlib.py', 'PYMODULE'),
  ('xml.parsers.expat',
   'd:\\python37\\lib\\xml\\parsers\\expat.py',
   'PYMODULE'),
  ('xml.parsers', 'd:\\python37\\lib\\xml\\parsers\\__init__.py', 'PYMODULE'),
  ('xml', 'd:\\python37\\lib\\xml\\__init__.py', 'PYMODULE'),
  ('xml.sax.expatreader',
   'd:\\python37\\lib\\xml\\sax\\expatreader.py',
   'PYMODULE'),
  ('xml.sax.saxutils', 'd:\\python37\\lib\\xml\\sax\\saxutils.py', 'PYMODULE'),
  ('xml.sax', 'd:\\python37\\lib\\xml\\sax\\__init__.py', 'PYMODULE'),
  ('xml.sax.handler', 'd:\\python37\\lib\\xml\\sax\\handler.py', 'PYMODULE'),
  ('xml.sax._exceptions',
   'd:\\python37\\lib\\xml\\sax\\_exceptions.py',
   'PYMODULE'),
  ('xml.sax.xmlreader',
   'd:\\python37\\lib\\xml\\sax\\xmlreader.py',
   'PYMODULE'),
  ('platform', 'd:\\python37\\lib\\platform.py', 'PYMODULE'),
  ('pkgutil', 'd:\\python37\\lib\\pkgutil.py', 'PYMODULE'),
  ('multiprocessing.popen_spawn_posix',
   'd:\\python37\\lib\\multiprocessing\\popen_spawn_posix.py',
   'PYMODULE'),
  ('multiprocessing.semaphore_tracker',
   'd:\\python37\\lib\\multiprocessing\\semaphore_tracker.py',
   'PYMODULE'),
  ('multiprocessing.util',
   'd:\\python37\\lib\\multiprocessing\\util.py',
   'PYMODULE'),
  ('multiprocessing.process',
   'd:\\python37\\lib\\multiprocessing\\process.py',
   'PYMODULE'),
  ('multiprocessing.context',
   'd:\\python37\\lib\\multiprocessing\\context.py',
   'PYMODULE'),
  ('multiprocessing.popen_forkserver',
   'd:\\python37\\lib\\multiprocessing\\popen_forkserver.py',
   'PYMODULE'),
  ('multiprocessing.forkserver',
   'd:\\python37\\lib\\multiprocessing\\forkserver.py',
   'PYMODULE'),
  ('multiprocessing.sharedctypes',
   'd:\\python37\\lib\\multiprocessing\\sharedctypes.py',
   'PYMODULE'),
  ('multiprocessing.heap',
   'd:\\python37\\lib\\multiprocessing\\heap.py',
   'PYMODULE'),
  ('bisect', 'd:\\python37\\lib\\bisect.py', 'PYMODULE'),
  ('multiprocessing.pool',
   'd:\\python37\\lib\\multiprocessing\\pool.py',
   'PYMODULE'),
  ('multiprocessing.dummy',
   'd:\\python37\\lib\\multiprocessing\\dummy\\__init__.py',
   'PYMODULE'),
  ('multiprocessing.dummy.connection',
   'd:\\python37\\lib\\multiprocessing\\dummy\\connection.py',
   'PYMODULE'),
  ('multiprocessing.queues',
   'd:\\python37\\lib\\multiprocessing\\queues.py',
   'PYMODULE'),
  ('multiprocessing.synchronize',
   'd:\\python37\\lib\\multiprocessing\\synchronize.py',
   'PYMODULE'),
  ('multiprocessing.connection',
   'd:\\python37\\lib\\multiprocessing\\connection.py',
   'PYMODULE'),
  ('multiprocessing.resource_sharer',
   'd:\\python37\\lib\\multiprocessing\\resource_sharer.py',
   'PYMODULE'),
  ('xmlrpc.client', 'd:\\python37\\lib\\xmlrpc\\client.py', 'PYMODULE'),
  ('xmlrpc', 'd:\\python37\\lib\\xmlrpc\\__init__.py', 'PYMODULE'),
  ('decimal', 'd:\\python37\\lib\\decimal.py', 'PYMODULE'),
  ('_pydecimal', 'd:\\python37\\lib\\_pydecimal.py', 'PYMODULE'),
  ('contextvars', 'd:\\python37\\lib\\contextvars.py', 'PYMODULE'),
  ('numbers', 'd:\\python37\\lib\\numbers.py', 'PYMODULE'),
  ('multiprocessing.managers',
   'd:\\python37\\lib\\multiprocessing\\managers.py',
   'PYMODULE'),
  ('multiprocessing.reduction',
   'd:\\python37\\lib\\multiprocessing\\reduction.py',
   'PYMODULE'),
  ('multiprocessing.popen_fork',
   'd:\\python37\\lib\\multiprocessing\\popen_fork.py',
   'PYMODULE'),
  ('multiprocessing.popen_spawn_win32',
   'd:\\python37\\lib\\multiprocessing\\popen_spawn_win32.py',
   'PYMODULE'),
  ('multiprocessing.spawn',
   'd:\\python37\\lib\\multiprocessing\\spawn.py',
   'PYMODULE'),
  ('multiprocessing',
   'd:\\python37\\lib\\multiprocessing\\__init__.py',
   'PYMODULE'),
  ('getpass', 'd:\\python37\\lib\\getpass.py', 'PYMODULE'),
  ('nturl2path', 'd:\\python37\\lib\\nturl2path.py', 'PYMODULE'),
  ('ftplib', 'd:\\python37\\lib\\ftplib.py', 'PYMODULE'),
  ('netrc', 'd:\\python37\\lib\\netrc.py', 'PYMODULE'),
  ('http.cookiejar', 'd:\\python37\\lib\\http\\cookiejar.py', 'PYMODULE'),
  ('_py_abc', 'd:\\python37\\lib\\_py_abc.py', 'PYMODULE'),
  ('tracemalloc', 'd:\\python37\\lib\\tracemalloc.py', 'PYMODULE'),
  ('stringprep', 'd:\\python37\\lib\\stringprep.py', 'PYMODULE'),
  ('automatic_phone',
   'F:\\upsec_project\\crawl_register\\weidan\\597\\归档\\automatic_phone.py',
   'PYMODULE'),
  ('WeiDian_UI',
   'F:\\upsec_project\\crawl_register\\weidan\\597\\归档\\WeiDian_UI.py',
   'PYMODULE'),
  ('PyQt5', 'd:\\python37\\lib\\site-packages\\PyQt5\\__init__.py', 'PYMODULE'),
  ('hashlib', 'd:\\python37\\lib\\hashlib.py', 'PYMODULE'),
  ('Crypto.Util.Padding',
   'd:\\python37\\lib\\site-packages\\Crypto\\Util\\Padding.py',
   'PYMODULE'),
  ('Crypto.Util',
   'd:\\python37\\lib\\site-packages\\Crypto\\Util\\__init__.py',
   'PYMODULE'),
  ('Crypto.Util._cpu_features',
   'd:\\python37\\lib\\site-packages\\Crypto\\Util\\_cpu_features.py',
   'PYMODULE'),
  ('Crypto.Util._raw_api',
   'd:\\python37\\lib\\site-packages\\Crypto\\Util\\_raw_api.py',
   'PYMODULE'),
  ('cffi', 'd:\\python37\\lib\\site-packages\\cffi\\__init__.py', 'PYMODULE'),
  ('cffi.error',
   'd:\\python37\\lib\\site-packages\\cffi\\error.py',
   'PYMODULE'),
  ('cffi.api', 'd:\\python37\\lib\\site-packages\\cffi\\api.py', 'PYMODULE'),
  ('cffi.recompiler',
   'd:\\python37\\lib\\site-packages\\cffi\\recompiler.py',
   'PYMODULE'),
  ('distutils.command.build_ext',
   'd:\\python37\\lib\\distutils\\command\\build_ext.py',
   'PYMODULE'),
  ('distutils.command',
   'd:\\python37\\lib\\distutils\\command\\__init__.py',
   'PYMODULE'),
  ('distutils._msvccompiler',
   'd:\\python37\\lib\\distutils\\_msvccompiler.py',
   'PYMODULE'),
  ('concurrent.futures',
   'd:\\python37\\lib\\concurrent\\futures\\__init__.py',
   'PYMODULE'),
  ('concurrent.futures.thread',
   'd:\\python37\\lib\\concurrent\\futures\\thread.py',
   'PYMODULE'),
  ('concurrent.futures.process',
   'd:\\python37\\lib\\concurrent\\futures\\process.py',
   'PYMODULE'),
  ('concurrent.futures._base',
   'd:\\python37\\lib\\concurrent\\futures\\_base.py',
   'PYMODULE'),
  ('concurrent', 'd:\\python37\\lib\\concurrent\\__init__.py', 'PYMODULE'),
  ('site',
   'd:\\python37\\lib\\site-packages\\PyInstaller\\fake-modules\\site.py',
   'PYMODULE'),
  ('distutils.extension',
   'd:\\python37\\lib\\distutils\\extension.py',
   'PYMODULE'),
  ('distutils.core', 'd:\\python37\\lib\\distutils\\core.py', 'PYMODULE'),
  ('distutils.config', 'd:\\python37\\lib\\distutils\\config.py', 'PYMODULE'),
  ('cgi', 'd:\\python37\\lib\\cgi.py', 'PYMODULE'),
  ('distutils.cmd', 'd:\\python37\\lib\\distutils\\cmd.py', 'PYMODULE'),
  ('distutils.fancy_getopt',
   'd:\\python37\\lib\\distutils\\fancy_getopt.py',
   'PYMODULE'),
  ('distutils.dist', 'd:\\python37\\lib\\distutils\\dist.py', 'PYMODULE'),
  ('distutils.versionpredicate',
   'd:\\python37\\lib\\distutils\\versionpredicate.py',
   'PYMODULE'),
  ('distutils.version', 'd:\\python37\\lib\\distutils\\version.py', 'PYMODULE'),
  ('distutils.ccompiler',
   'd:\\python37\\lib\\distutils\\ccompiler.py',
   'PYMODULE'),
  ('distutils.msvc9compiler',
   'd:\\python37\\lib\\distutils\\msvc9compiler.py',
   'PYMODULE'),
  ('cffi.cffi_opcode',
   'd:\\python37\\lib\\site-packages\\cffi\\cffi_opcode.py',
   'PYMODULE'),
  ('cffi.verifier',
   'd:\\python37\\lib\\site-packages\\cffi\\verifier.py',
   'PYMODULE'),
  ('cffi.lock', 'd:\\python37\\lib\\site-packages\\cffi\\lock.py', 'PYMODULE'),
  ('_dummy_thread', 'd:\\python37\\lib\\_dummy_thread.py', 'PYMODULE'),
  ('cffi.pkgconfig',
   'd:\\python37\\lib\\site-packages\\cffi\\pkgconfig.py',
   'PYMODULE'),
  ('cffi.vengine_cpy',
   'd:\\python37\\lib\\site-packages\\cffi\\vengine_cpy.py',
   'PYMODULE'),
  ('cffi.vengine_gen',
   'd:\\python37\\lib\\site-packages\\cffi\\vengine_gen.py',
   'PYMODULE'),
  ('cffi.ffiplatform',
   'd:\\python37\\lib\\site-packages\\cffi\\ffiplatform.py',
   'PYMODULE'),
  ('setuptools',
   'd:\\python37\\lib\\site-packages\\setuptools\\__init__.py',
   'PYMODULE'),
  ('setuptools._vendor.pyparsing',
   'd:\\python37\\lib\\site-packages\\setuptools\\_vendor\\pyparsing.py',
   'PYMODULE'),
  ('setuptools._vendor.packaging.version',
   'd:\\python37\\lib\\site-packages\\setuptools\\_vendor\\packaging\\version.py',
   'PYMODULE'),
  ('setuptools._vendor.packaging.utils',
   'd:\\python37\\lib\\site-packages\\setuptools\\_vendor\\packaging\\utils.py',
   'PYMODULE'),
  ('setuptools._vendor.packaging.tags',
   'd:\\python37\\lib\\site-packages\\setuptools\\_vendor\\packaging\\tags.py',
   'PYMODULE'),
  ('setuptools._vendor.packaging.specifiers',
   'd:\\python37\\lib\\site-packages\\setuptools\\_vendor\\packaging\\specifiers.py',
   'PYMODULE'),
  ('setuptools._vendor.packaging.requirements',
   'd:\\python37\\lib\\site-packages\\setuptools\\_vendor\\packaging\\requirements.py',
   'PYMODULE'),
  ('setuptools._vendor.packaging.markers',
   'd:\\python37\\lib\\site-packages\\setuptools\\_vendor\\packaging\\markers.py',
   'PYMODULE'),
  ('setuptools._vendor.packaging._typing',
   'd:\\python37\\lib\\site-packages\\setuptools\\_vendor\\packaging\\_typing.py',
   'PYMODULE'),
  ('setuptools._vendor.packaging._structures',
   'd:\\python37\\lib\\site-packages\\setuptools\\_vendor\\packaging\\_structures.py',
   'PYMODULE'),
  ('setuptools._vendor.packaging._compat',
   'd:\\python37\\lib\\site-packages\\setuptools\\_vendor\\packaging\\_compat.py',
   'PYMODULE'),
  ('setuptools._vendor.packaging.__about__',
   'd:\\python37\\lib\\site-packages\\setuptools\\_vendor\\packaging\\__about__.py',
   'PYMODULE'),
  ('setuptools._vendor.packaging',
   'd:\\python37\\lib\\site-packages\\setuptools\\_vendor\\packaging\\__init__.py',
   'PYMODULE'),
  ('setuptools._vendor.ordered_set',
   'd:\\python37\\lib\\site-packages\\setuptools\\_vendor\\ordered_set.py',
   'PYMODULE'),
  ('setuptools._vendor',
   'd:\\python37\\lib\\site-packages\\setuptools\\_vendor\\__init__.py',
   'PYMODULE'),
  ('setuptools.msvc',
   'd:\\python37\\lib\\site-packages\\setuptools\\msvc.py',
   'PYMODULE'),
  ('setuptools.namespaces',
   'd:\\python37\\lib\\site-packages\\setuptools\\namespaces.py',
   'PYMODULE'),
  ('setuptools.monkey',
   'd:\\python37\\lib\\site-packages\\setuptools\\monkey.py',
   'PYMODULE'),
  ('setuptools.depends',
   'd:\\python37\\lib\\site-packages\\setuptools\\depends.py',
   'PYMODULE'),
  ('setuptools._imp',
   'd:\\python37\\lib\\site-packages\\setuptools\\_imp.py',
   'PYMODULE'),
  ('setuptools.py34compat',
   'd:\\python37\\lib\\site-packages\\setuptools\\py34compat.py',
   'PYMODULE'),
  ('setuptools.dist',
   'd:\\python37\\lib\\site-packages\\setuptools\\dist.py',
   'PYMODULE'),
  ('setuptools.installer',
   'd:\\python37\\lib\\site-packages\\setuptools\\installer.py',
   'PYMODULE'),
  ('setuptools.wheel',
   'd:\\python37\\lib\\site-packages\\setuptools\\wheel.py',
   'PYMODULE'),
  ('setuptools.command.egg_info',
   'd:\\python37\\lib\\site-packages\\setuptools\\command\\egg_info.py',
   'PYMODULE'),
  ('setuptools.glob',
   'd:\\python37\\lib\\site-packages\\setuptools\\glob.py',
   'PYMODULE'),
  ('setuptools.unicode_utils',
   'd:\\python37\\lib\\site-packages\\setuptools\\unicode_utils.py',
   'PYMODULE'),
  ('setuptools.command.bdist_egg',
   'd:\\python37\\lib\\site-packages\\setuptools\\command\\bdist_egg.py',
   'PYMODULE'),
  ('setuptools.command.setopt',
   'd:\\python37\\lib\\site-packages\\setuptools\\command\\setopt.py',
   'PYMODULE'),
  ('setuptools.command.sdist',
   'd:\\python37\\lib\\site-packages\\setuptools\\command\\sdist.py',
   'PYMODULE'),
  ('setuptools.command.py36compat',
   'd:\\python37\\lib\\site-packages\\setuptools\\command\\py36compat.py',
   'PYMODULE'),
  ('distutils.command.sdist',
   'd:\\python37\\lib\\distutils\\command\\sdist.py',
   'PYMODULE'),
  ('setuptools.config',
   'd:\\python37\\lib\\site-packages\\setuptools\\config.py',
   'PYMODULE'),
  ('setuptools.command',
   'd:\\python37\\lib\\site-packages\\setuptools\\command\\__init__.py',
   'PYMODULE'),
  ('setuptools.command.install_scripts',
   'd:\\python37\\lib\\site-packages\\setuptools\\command\\install_scripts.py',
   'PYMODULE'),
  ('setuptools.command.easy_install',
   'd:\\python37\\lib\\site-packages\\setuptools\\command\\easy_install.py',
   'PYMODULE'),
  ('setuptools.package_index',
   'd:\\python37\\lib\\site-packages\\setuptools\\package_index.py',
   'PYMODULE'),
  ('setuptools.archive_util',
   'd:\\python37\\lib\\site-packages\\setuptools\\archive_util.py',
   'PYMODULE'),
  ('setuptools.sandbox',
   'd:\\python37\\lib\\site-packages\\setuptools\\sandbox.py',
   'PYMODULE'),
  ('distutils.command.build_scripts',
   'd:\\python37\\lib\\distutils\\command\\build_scripts.py',
   'PYMODULE'),
  ('distutils.command.install',
   'd:\\python37\\lib\\distutils\\command\\install.py',
   'PYMODULE'),
  ('distutils.command.install_scripts',
   'd:\\python37\\lib\\distutils\\command\\install_scripts.py',
   'PYMODULE'),
  ('distutils.command.bdist',
   'd:\\python37\\lib\\distutils\\command\\bdist.py',
   'PYMODULE'),
  ('setuptools.extern',
   'd:\\python37\\lib\\site-packages\\setuptools\\extern\\__init__.py',
   'PYMODULE'),
  ('setuptools.windows_support',
   'd:\\python37\\lib\\site-packages\\setuptools\\windows_support.py',
   'PYMODULE'),
  ('setuptools.ssl_support',
   'd:\\python37\\lib\\site-packages\\setuptools\\ssl_support.py',
   'PYMODULE'),
  ('setuptools.extension',
   'd:\\python37\\lib\\site-packages\\setuptools\\extension.py',
   'PYMODULE'),
  ('setuptools.version',
   'd:\\python37\\lib\\site-packages\\setuptools\\version.py',
   'PYMODULE'),
  ('setuptools._deprecation_warning',
   'd:\\python37\\lib\\site-packages\\setuptools\\_deprecation_warning.py',
   'PYMODULE'),
  ('_distutils_hack.override',
   'd:\\python37\\lib\\site-packages\\_distutils_hack\\override.py',
   'PYMODULE'),
  ('_distutils_hack',
   'd:\\python37\\lib\\site-packages\\_distutils_hack\\__init__.py',
   'PYMODULE'),
  ('cffi.cparser',
   'd:\\python37\\lib\\site-packages\\cffi\\cparser.py',
   'PYMODULE'),
  ('pycparser.lextab',
   'd:\\python37\\lib\\site-packages\\pycparser\\lextab.py',
   'PYMODULE'),
  ('pycparser.yacctab',
   'd:\\python37\\lib\\site-packages\\pycparser\\yacctab.py',
   'PYMODULE'),
  ('pycparser',
   'd:\\python37\\lib\\site-packages\\pycparser\\__init__.py',
   'PYMODULE'),
  ('pycparser.c_parser',
   'd:\\python37\\lib\\site-packages\\pycparser\\c_parser.py',
   'PYMODULE'),
  ('pycparser.ast_transforms',
   'd:\\python37\\lib\\site-packages\\pycparser\\ast_transforms.py',
   'PYMODULE'),
  ('pycparser.plyparser',
   'd:\\python37\\lib\\site-packages\\pycparser\\plyparser.py',
   'PYMODULE'),
  ('pycparser.c_lexer',
   'd:\\python37\\lib\\site-packages\\pycparser\\c_lexer.py',
   'PYMODULE'),
  ('pycparser.ply.lex',
   'd:\\python37\\lib\\site-packages\\pycparser\\ply\\lex.py',
   'PYMODULE'),
  ('pycparser.ply.yacc',
   'd:\\python37\\lib\\site-packages\\pycparser\\ply\\yacc.py',
   'PYMODULE'),
  ('pycparser.ply',
   'd:\\python37\\lib\\site-packages\\pycparser\\ply\\__init__.py',
   'PYMODULE'),
  ('pycparser.c_ast',
   'd:\\python37\\lib\\site-packages\\pycparser\\c_ast.py',
   'PYMODULE'),
  ('cffi.commontypes',
   'd:\\python37\\lib\\site-packages\\cffi\\commontypes.py',
   'PYMODULE'),
  ('cffi.model',
   'd:\\python37\\lib\\site-packages\\cffi\\model.py',
   'PYMODULE'),
  ('Crypto.Util._file_system',
   'd:\\python37\\lib\\site-packages\\Crypto\\Util\\_file_system.py',
   'PYMODULE'),
  ('Crypto',
   'd:\\python37\\lib\\site-packages\\Crypto\\__init__.py',
   'PYMODULE'),
  ('Crypto.Util.py3compat',
   'd:\\python37\\lib\\site-packages\\Crypto\\Util\\py3compat.py',
   'PYMODULE'),
  ('Crypto.Cipher.AES',
   'd:\\python37\\lib\\site-packages\\Crypto\\Cipher\\AES.py',
   'PYMODULE'),
  ('Crypto.Random',
   'd:\\python37\\lib\\site-packages\\Crypto\\Random\\__init__.py',
   'PYMODULE'),
  ('Crypto.Cipher',
   'd:\\python37\\lib\\site-packages\\Crypto\\Cipher\\__init__.py',
   'PYMODULE'),
  ('Crypto.Cipher._mode_ocb',
   'd:\\python37\\lib\\site-packages\\Crypto\\Cipher\\_mode_ocb.py',
   'PYMODULE'),
  ('Crypto.Hash.BLAKE2s',
   'd:\\python37\\lib\\site-packages\\Crypto\\Hash\\BLAKE2s.py',
   'PYMODULE'),
  ('Crypto.Hash',
   'd:\\python37\\lib\\site-packages\\Crypto\\Hash\\__init__.py',
   'PYMODULE'),
  ('Crypto.Hash.HMAC',
   'd:\\python37\\lib\\site-packages\\Crypto\\Hash\\HMAC.py',
   'PYMODULE'),
  ('Crypto.Hash.MD5',
   'd:\\python37\\lib\\site-packages\\Crypto\\Hash\\MD5.py',
   'PYMODULE'),
  ('Crypto.Hash.SHA256',
   'd:\\python37\\lib\\site-packages\\Crypto\\Hash\\SHA256.py',
   'PYMODULE'),
  ('Crypto.Hash.SHA1',
   'd:\\python37\\lib\\site-packages\\Crypto\\Hash\\SHA1.py',
   'PYMODULE'),
  ('Crypto.Hash.CMAC',
   'd:\\python37\\lib\\site-packages\\Crypto\\Hash\\CMAC.py',
   'PYMODULE'),
  ('Crypto.Util.strxor',
   'd:\\python37\\lib\\site-packages\\Crypto\\Util\\strxor.py',
   'PYMODULE'),
  ('Crypto.Util.number',
   'd:\\python37\\lib\\site-packages\\Crypto\\Util\\number.py',
   'PYMODULE'),
  ('Crypto.Cipher._mode_gcm',
   'd:\\python37\\lib\\site-packages\\Crypto\\Cipher\\_mode_gcm.py',
   'PYMODULE'),
  ('Crypto.Cipher._mode_siv',
   'd:\\python37\\lib\\site-packages\\Crypto\\Cipher\\_mode_siv.py',
   'PYMODULE'),
  ('Crypto.Protocol.KDF',
   'd:\\python37\\lib\\site-packages\\Crypto\\Protocol\\KDF.py',
   'PYMODULE'),
  ('Crypto.Protocol',
   'd:\\python37\\lib\\site-packages\\Crypto\\Protocol\\__init__.py',
   'PYMODULE'),
  ('Crypto.Cipher._EKSBlowfish',
   'd:\\python37\\lib\\site-packages\\Crypto\\Cipher\\_EKSBlowfish.py',
   'PYMODULE'),
  ('Crypto.Cipher._mode_eax',
   'd:\\python37\\lib\\site-packages\\Crypto\\Cipher\\_mode_eax.py',
   'PYMODULE'),
  ('Crypto.Cipher._mode_ccm',
   'd:\\python37\\lib\\site-packages\\Crypto\\Cipher\\_mode_ccm.py',
   'PYMODULE'),
  ('Crypto.Cipher._mode_openpgp',
   'd:\\python37\\lib\\site-packages\\Crypto\\Cipher\\_mode_openpgp.py',
   'PYMODULE'),
  ('Crypto.Cipher._mode_ctr',
   'd:\\python37\\lib\\site-packages\\Crypto\\Cipher\\_mode_ctr.py',
   'PYMODULE'),
  ('Crypto.Cipher._mode_ofb',
   'd:\\python37\\lib\\site-packages\\Crypto\\Cipher\\_mode_ofb.py',
   'PYMODULE'),
  ('Crypto.Cipher._mode_cfb',
   'd:\\python37\\lib\\site-packages\\Crypto\\Cipher\\_mode_cfb.py',
   'PYMODULE'),
  ('Crypto.Cipher._mode_cbc',
   'd:\\python37\\lib\\site-packages\\Crypto\\Cipher\\_mode_cbc.py',
   'PYMODULE'),
  ('Crypto.Cipher._mode_ecb',
   'd:\\python37\\lib\\site-packages\\Crypto\\Cipher\\_mode_ecb.py',
   'PYMODULE'),
  ('log',
   'F:\\upsec_project\\crawl_register\\weidan\\597\\归档\\log.py',
   'PYMODULE'),
  ('curses', 'd:\\python37\\lib\\curses\\__init__.py', 'PYMODULE'),
  ('curses.has_key', 'd:\\python37\\lib\\curses\\has_key.py', 'PYMODULE'),
  ('configparser', 'd:\\python37\\lib\\configparser.py', 'PYMODULE'),
  ('requests_toolbelt',
   'd:\\python37\\lib\\site-packages\\requests_toolbelt\\__init__.py',
   'PYMODULE'),
  ('requests_toolbelt.utils.user_agent',
   'd:\\python37\\lib\\site-packages\\requests_toolbelt\\utils\\user_agent.py',
   'PYMODULE'),
  ('requests_toolbelt.utils',
   'd:\\python37\\lib\\site-packages\\requests_toolbelt\\utils\\__init__.py',
   'PYMODULE'),
  ('requests_toolbelt.streaming_iterator',
   'd:\\python37\\lib\\site-packages\\requests_toolbelt\\streaming_iterator.py',
   'PYMODULE'),
  ('requests_toolbelt.multipart.encoder',
   'd:\\python37\\lib\\site-packages\\requests_toolbelt\\multipart\\encoder.py',
   'PYMODULE'),
  ('requests_toolbelt._compat',
   'd:\\python37\\lib\\site-packages\\requests_toolbelt\\_compat.py',
   'PYMODULE'),
  ('urllib3.contrib.pyopenssl',
   'd:\\python37\\lib\\site-packages\\urllib3\\contrib\\pyopenssl.py',
   'PYMODULE'),
  ('idna', 'd:\\python37\\lib\\site-packages\\idna\\__init__.py', 'PYMODULE'),
  ('idna.core', 'd:\\python37\\lib\\site-packages\\idna\\core.py', 'PYMODULE'),
  ('idna.uts46data',
   'd:\\python37\\lib\\site-packages\\idna\\uts46data.py',
   'PYMODULE'),
  ('idna.intranges',
   'd:\\python37\\lib\\site-packages\\idna\\intranges.py',
   'PYMODULE'),
  ('idna.idnadata',
   'd:\\python37\\lib\\site-packages\\idna\\idnadata.py',
   'PYMODULE'),
  ('idna.package_data',
   'd:\\python37\\lib\\site-packages\\idna\\package_data.py',
   'PYMODULE'),
  ('OpenSSL.crypto',
   'd:\\python37\\lib\\site-packages\\OpenSSL\\crypto.py',
   'PYMODULE'),
  ('OpenSSL',
   'd:\\python37\\lib\\site-packages\\OpenSSL\\__init__.py',
   'PYMODULE'),
  ('OpenSSL.version',
   'd:\\python37\\lib\\site-packages\\OpenSSL\\version.py',
   'PYMODULE'),
  ('OpenSSL._util',
   'd:\\python37\\lib\\site-packages\\OpenSSL\\_util.py',
   'PYMODULE'),
  ('cryptography.hazmat.bindings.openssl.binding',
   'd:\\python37\\lib\\site-packages\\cryptography\\hazmat\\bindings\\openssl\\binding.py',
   'PYMODULE'),
  ('cryptography.hazmat.bindings.openssl',
   'd:\\python37\\lib\\site-packages\\cryptography\\hazmat\\bindings\\openssl\\__init__.py',
   'PYMODULE'),
  ('cryptography.hazmat.bindings',
   'd:\\python37\\lib\\site-packages\\cryptography\\hazmat\\bindings\\__init__.py',
   'PYMODULE'),
  ('cryptography.hazmat',
   'd:\\python37\\lib\\site-packages\\cryptography\\hazmat\\__init__.py',
   'PYMODULE'),
  ('cryptography.hazmat.bindings.openssl._conditional',
   'd:\\python37\\lib\\site-packages\\cryptography\\hazmat\\bindings\\openssl\\_conditional.py',
   'PYMODULE'),
  ('cryptography.exceptions',
   'd:\\python37\\lib\\site-packages\\cryptography\\exceptions.py',
   'PYMODULE'),
  ('cryptography.utils',
   'd:\\python37\\lib\\site-packages\\cryptography\\utils.py',
   'PYMODULE'),
  ('cryptography.hazmat.primitives.asymmetric.rsa',
   'd:\\python37\\lib\\site-packages\\cryptography\\hazmat\\primitives\\asymmetric\\rsa.py',
   'PYMODULE'),
  ('cryptography.hazmat.backends.interfaces',
   'd:\\python37\\lib\\site-packages\\cryptography\\hazmat\\backends\\interfaces.py',
   'PYMODULE'),
  ('cryptography.hazmat.backends',
   'd:\\python37\\lib\\site-packages\\cryptography\\hazmat\\backends\\__init__.py',
   'PYMODULE'),
  ('fractions', 'd:\\python37\\lib\\fractions.py', 'PYMODULE'),
  ('cryptography.hazmat.primitives.asymmetric.dsa',
   'd:\\python37\\lib\\site-packages\\cryptography\\hazmat\\primitives\\asymmetric\\dsa.py',
   'PYMODULE'),
  ('cryptography.hazmat.primitives.asymmetric',
   'd:\\python37\\lib\\site-packages\\cryptography\\hazmat\\primitives\\asymmetric\\__init__.py',
   'PYMODULE'),
  ('cryptography.hazmat.primitives.asymmetric.dh',
   'd:\\python37\\lib\\site-packages\\cryptography\\hazmat\\primitives\\asymmetric\\dh.py',
   'PYMODULE'),
  ('cryptography.hazmat.primitives.asymmetric.ec',
   'd:\\python37\\lib\\site-packages\\cryptography\\hazmat\\primitives\\asymmetric\\ec.py',
   'PYMODULE'),
  ('cryptography.hazmat.primitives',
   'd:\\python37\\lib\\site-packages\\cryptography\\hazmat\\primitives\\__init__.py',
   'PYMODULE'),
  ('cryptography.hazmat.primitives.hashes',
   'd:\\python37\\lib\\site-packages\\cryptography\\hazmat\\primitives\\hashes.py',
   'PYMODULE'),
  ('cryptography.hazmat.primitives.serialization',
   'd:\\python37\\lib\\site-packages\\cryptography\\hazmat\\primitives\\serialization.py',
   'PYMODULE'),
  ('cryptography.hazmat.primitives.mac',
   'd:\\python37\\lib\\site-packages\\cryptography\\hazmat\\primitives\\mac.py',
   'PYMODULE'),
  ('cryptography.hazmat.primitives.constant_time',
   'd:\\python37\\lib\\site-packages\\cryptography\\hazmat\\primitives\\constant_time.py',
   'PYMODULE'),
  ('six', 'd:\\python37\\lib\\site-packages\\six.py', 'PYMODULE'),
  ('cryptography.x509.extensions',
   'd:\\python37\\lib\\site-packages\\cryptography\\x509\\extensions.py',
   'PYMODULE'),
  ('cryptography.x509.oid',
   'd:\\python37\\lib\\site-packages\\cryptography\\x509\\oid.py',
   'PYMODULE'),
  ('cryptography.x509.name',
   'd:\\python37\\lib\\site-packages\\cryptography\\x509\\name.py',
   'PYMODULE'),
  ('cryptography.x509.general_name',
   'd:\\python37\\lib\\site-packages\\cryptography\\x509\\general_name.py',
   'PYMODULE'),
  ('cryptography.x509.certificate_transparency',
   'd:\\python37\\lib\\site-packages\\cryptography\\x509\\certificate_transparency.py',
   'PYMODULE'),
  ('asn1crypto.keys',
   'd:\\python37\\lib\\site-packages\\asn1crypto\\keys.py',
   'PYMODULE'),
  ('asn1crypto',
   'd:\\python37\\lib\\site-packages\\asn1crypto\\__init__.py',
   'PYMODULE'),
  ('asn1crypto._teletex_codec',
   'd:\\python37\\lib\\site-packages\\asn1crypto\\_teletex_codec.py',
   'PYMODULE'),
  ('asn1crypto.version',
   'd:\\python37\\lib\\site-packages\\asn1crypto\\version.py',
   'PYMODULE'),
  ('asn1crypto.util',
   'd:\\python37\\lib\\site-packages\\asn1crypto\\util.py',
   'PYMODULE'),
  ('asn1crypto._inet',
   'd:\\python37\\lib\\site-packages\\asn1crypto\\_inet.py',
   'PYMODULE'),
  ('asn1crypto._ordereddict',
   'd:\\python37\\lib\\site-packages\\asn1crypto\\_ordereddict.py',
   'PYMODULE'),
  ('asn1crypto._iri',
   'd:\\python37\\lib\\site-packages\\asn1crypto\\_iri.py',
   'PYMODULE'),
  ('asn1crypto.core',
   'd:\\python37\\lib\\site-packages\\asn1crypto\\core.py',
   'PYMODULE'),
  ('asn1crypto.parser',
   'd:\\python37\\lib\\site-packages\\asn1crypto\\parser.py',
   'PYMODULE'),
  ('asn1crypto.algos',
   'd:\\python37\\lib\\site-packages\\asn1crypto\\algos.py',
   'PYMODULE'),
  ('asn1crypto._int',
   'd:\\python37\\lib\\site-packages\\asn1crypto\\_int.py',
   'PYMODULE'),
  ('asn1crypto._perf._big_num_ctypes',
   'd:\\python37\\lib\\site-packages\\asn1crypto\\_perf\\_big_num_ctypes.py',
   'PYMODULE'),
  ('asn1crypto._perf',
   'd:\\python37\\lib\\site-packages\\asn1crypto\\_perf\\__init__.py',
   'PYMODULE'),
  ('asn1crypto._ffi',
   'd:\\python37\\lib\\site-packages\\asn1crypto\\_ffi.py',
   'PYMODULE'),
  ('asn1crypto._types',
   'd:\\python37\\lib\\site-packages\\asn1crypto\\_types.py',
   'PYMODULE'),
  ('asn1crypto._errors',
   'd:\\python37\\lib\\site-packages\\asn1crypto\\_errors.py',
   'PYMODULE'),
  ('asn1crypto._elliptic_curve',
   'd:\\python37\\lib\\site-packages\\asn1crypto\\_elliptic_curve.py',
   'PYMODULE'),
  ('ipaddress', 'd:\\python37\\lib\\ipaddress.py', 'PYMODULE'),
  ('urllib3.packages.six',
   'd:\\python37\\lib\\site-packages\\urllib3\\packages\\six.py',
   'PYMODULE'),
  ('urllib3.packages',
   'd:\\python37\\lib\\site-packages\\urllib3\\packages\\__init__.py',
   'PYMODULE'),
  ('urllib3.packages.ssl_match_hostname',
   'd:\\python37\\lib\\site-packages\\urllib3\\packages\\ssl_match_hostname\\__init__.py',
   'PYMODULE'),
  ('urllib3.packages.ssl_match_hostname._implementation',
   'd:\\python37\\lib\\site-packages\\urllib3\\packages\\ssl_match_hostname\\_implementation.py',
   'PYMODULE'),
  ('urllib3.packages.backports.makefile',
   'd:\\python37\\lib\\site-packages\\urllib3\\packages\\backports\\makefile.py',
   'PYMODULE'),
  ('urllib3.packages.backports',
   'd:\\python37\\lib\\site-packages\\urllib3\\packages\\backports\\__init__.py',
   'PYMODULE'),
  ('cryptography.hazmat.backends.openssl.x509',
   'd:\\python37\\lib\\site-packages\\cryptography\\hazmat\\backends\\openssl\\x509.py',
   'PYMODULE'),
  ('cryptography.hazmat.backends.openssl.encode_asn1',
   'd:\\python37\\lib\\site-packages\\cryptography\\hazmat\\backends\\openssl\\encode_asn1.py',
   'PYMODULE'),
  ('cryptography.hazmat.backends.openssl.decode_asn1',
   'd:\\python37\\lib\\site-packages\\cryptography\\hazmat\\backends\\openssl\\decode_asn1.py',
   'PYMODULE'),
  ('cryptography.hazmat.backends.openssl.backend',
   'd:\\python37\\lib\\site-packages\\cryptography\\hazmat\\backends\\openssl\\backend.py',
   'PYMODULE'),
  ('cryptography.hazmat.primitives.kdf.scrypt',
   'd:\\python37\\lib\\site-packages\\cryptography\\hazmat\\primitives\\kdf\\scrypt.py',
   'PYMODULE'),
  ('cryptography.hazmat.primitives.kdf',
   'd:\\python37\\lib\\site-packages\\cryptography\\hazmat\\primitives\\kdf\\__init__.py',
   'PYMODULE'),
  ('cryptography.hazmat.primitives.ciphers.modes',
   'd:\\python37\\lib\\site-packages\\cryptography\\hazmat\\primitives\\ciphers\\modes.py',
   'PYMODULE'),
  ('cryptography.hazmat.primitives.ciphers',
   'd:\\python37\\lib\\site-packages\\cryptography\\hazmat\\primitives\\ciphers\\__init__.py',
   'PYMODULE'),
  ('cryptography.hazmat.primitives.ciphers.base',
   'd:\\python37\\lib\\site-packages\\cryptography\\hazmat\\primitives\\ciphers\\base.py',
   'PYMODULE'),
  ('cryptography.hazmat.primitives.ciphers.algorithms',
   'd:\\python37\\lib\\site-packages\\cryptography\\hazmat\\primitives\\ciphers\\algorithms.py',
   'PYMODULE'),
  ('cryptography.hazmat.primitives.asymmetric.padding',
   'd:\\python37\\lib\\site-packages\\cryptography\\hazmat\\primitives\\asymmetric\\padding.py',
   'PYMODULE'),
  ('cryptography.hazmat.backends.openssl.x25519',
   'd:\\python37\\lib\\site-packages\\cryptography\\hazmat\\backends\\openssl\\x25519.py',
   'PYMODULE'),
  ('cryptography.hazmat.primitives.asymmetric.x25519',
   'd:\\python37\\lib\\site-packages\\cryptography\\hazmat\\primitives\\asymmetric\\x25519.py',
   'PYMODULE'),
  ('cryptography.hazmat.backends.openssl.rsa',
   'd:\\python37\\lib\\site-packages\\cryptography\\hazmat\\backends\\openssl\\rsa.py',
   'PYMODULE'),
  ('cryptography.hazmat.backends.openssl.utils',
   'd:\\python37\\lib\\site-packages\\cryptography\\hazmat\\backends\\openssl\\utils.py',
   'PYMODULE'),
  ('cryptography.hazmat.primitives.asymmetric.utils',
   'd:\\python37\\lib\\site-packages\\cryptography\\hazmat\\primitives\\asymmetric\\utils.py',
   'PYMODULE'),
  ('cryptography.hazmat.backends.openssl.hmac',
   'd:\\python37\\lib\\site-packages\\cryptography\\hazmat\\backends\\openssl\\hmac.py',
   'PYMODULE'),
  ('cryptography.hazmat.backends.openssl.hashes',
   'd:\\python37\\lib\\site-packages\\cryptography\\hazmat\\backends\\openssl\\hashes.py',
   'PYMODULE'),
  ('cryptography.hazmat.backends.openssl.ec',
   'd:\\python37\\lib\\site-packages\\cryptography\\hazmat\\backends\\openssl\\ec.py',
   'PYMODULE'),
  ('cryptography.hazmat.backends.openssl.dsa',
   'd:\\python37\\lib\\site-packages\\cryptography\\hazmat\\backends\\openssl\\dsa.py',
   'PYMODULE'),
  ('cryptography.hazmat.backends.openssl.dh',
   'd:\\python37\\lib\\site-packages\\cryptography\\hazmat\\backends\\openssl\\dh.py',
   'PYMODULE'),
  ('cryptography.hazmat.backends.openssl.cmac',
   'd:\\python37\\lib\\site-packages\\cryptography\\hazmat\\backends\\openssl\\cmac.py',
   'PYMODULE'),
  ('cryptography.hazmat.backends.openssl.ciphers',
   'd:\\python37\\lib\\site-packages\\cryptography\\hazmat\\backends\\openssl\\ciphers.py',
   'PYMODULE'),
  ('cryptography.hazmat.backends.openssl.aead',
   'd:\\python37\\lib\\site-packages\\cryptography\\hazmat\\backends\\openssl\\aead.py',
   'PYMODULE'),
  ('cryptography.hazmat.primitives.ciphers.aead',
   'd:\\python37\\lib\\site-packages\\cryptography\\hazmat\\primitives\\ciphers\\aead.py',
   'PYMODULE'),
  ('cryptography.hazmat.backends.openssl',
   'd:\\python37\\lib\\site-packages\\cryptography\\hazmat\\backends\\openssl\\__init__.py',
   'PYMODULE'),
  ('cryptography.x509',
   'd:\\python37\\lib\\site-packages\\cryptography\\x509\\__init__.py',
   'PYMODULE'),
  ('cryptography.x509.base',
   'd:\\python37\\lib\\site-packages\\cryptography\\x509\\base.py',
   'PYMODULE'),
  ('cryptography',
   'd:\\python37\\lib\\site-packages\\cryptography\\__init__.py',
   'PYMODULE'),
  ('cryptography.__about__',
   'd:\\python37\\lib\\site-packages\\cryptography\\__about__.py',
   'PYMODULE'),
  ('OpenSSL.SSL',
   'd:\\python37\\lib\\site-packages\\OpenSSL\\SSL.py',
   'PYMODULE'),
  ('urllib3.contrib.appengine',
   'd:\\python37\\lib\\site-packages\\urllib3\\contrib\\appengine.py',
   'PYMODULE'),
  ('urllib3.contrib._appengine_environ',
   'd:\\python37\\lib\\site-packages\\urllib3\\contrib\\_appengine_environ.py',
   'PYMODULE'),
  ('urllib3.util.retry',
   'd:\\python37\\lib\\site-packages\\urllib3\\util\\retry.py',
   'PYMODULE'),
  ('urllib3.response',
   'd:\\python37\\lib\\site-packages\\urllib3\\response.py',
   'PYMODULE'),
  ('urllib3.util.response',
   'd:\\python37\\lib\\site-packages\\urllib3\\util\\response.py',
   'PYMODULE'),
  ('urllib3._collections',
   'd:\\python37\\lib\\site-packages\\urllib3\\_collections.py',
   'PYMODULE'),
  ('brotli',
   'd:\\python37\\lib\\site-packages\\brotli\\__init__.py',
   'PYMODULE'),
  ('brotli.brotli',
   'd:\\python37\\lib\\site-packages\\brotli\\brotli.py',
   'PYMODULE'),
  ('urllib3.request',
   'd:\\python37\\lib\\site-packages\\urllib3\\request.py',
   'PYMODULE'),
  ('urllib3.exceptions',
   'd:\\python37\\lib\\site-packages\\urllib3\\exceptions.py',
   'PYMODULE'),
  ('urllib3.contrib',
   'd:\\python37\\lib\\site-packages\\urllib3\\contrib\\__init__.py',
   'PYMODULE'),
  ('urllib3.util.timeout',
   'd:\\python37\\lib\\site-packages\\urllib3\\util\\timeout.py',
   'PYMODULE'),
  ('urllib3.util',
   'd:\\python37\\lib\\site-packages\\urllib3\\util\\__init__.py',
   'PYMODULE'),
  ('urllib3.util.wait',
   'd:\\python37\\lib\\site-packages\\urllib3\\util\\wait.py',
   'PYMODULE'),
  ('urllib3.util.url',
   'd:\\python37\\lib\\site-packages\\urllib3\\util\\url.py',
   'PYMODULE'),
  ('urllib3.util.ssl_',
   'd:\\python37\\lib\\site-packages\\urllib3\\util\\ssl_.py',
   'PYMODULE'),
  ('urllib3.util.request',
   'd:\\python37\\lib\\site-packages\\urllib3\\util\\request.py',
   'PYMODULE'),
  ('urllib3.util.connection',
   'd:\\python37\\lib\\site-packages\\urllib3\\util\\connection.py',
   'PYMODULE'),
  ('urllib3.connection',
   'd:\\python37\\lib\\site-packages\\urllib3\\connection.py',
   'PYMODULE'),
  ('urllib3.poolmanager',
   'd:\\python37\\lib\\site-packages\\urllib3\\poolmanager.py',
   'PYMODULE'),
  ('urllib3.connectionpool',
   'd:\\python37\\lib\\site-packages\\urllib3\\connectionpool.py',
   'PYMODULE'),
  ('urllib3.util.queue',
   'd:\\python37\\lib\\site-packages\\urllib3\\util\\queue.py',
   'PYMODULE'),
  ('urllib3.filepost',
   'd:\\python37\\lib\\site-packages\\urllib3\\filepost.py',
   'PYMODULE'),
  ('urllib3.fields',
   'd:\\python37\\lib\\site-packages\\urllib3\\fields.py',
   'PYMODULE'),
  ('urllib3',
   'd:\\python37\\lib\\site-packages\\urllib3\\__init__.py',
   'PYMODULE'),
  ('requests.utils',
   'd:\\python37\\lib\\site-packages\\requests\\utils.py',
   'PYMODULE'),
  ('requests.exceptions',
   'd:\\python37\\lib\\site-packages\\requests\\exceptions.py',
   'PYMODULE'),
  ('requests.structures',
   'd:\\python37\\lib\\site-packages\\requests\\structures.py',
   'PYMODULE'),
  ('requests.cookies',
   'd:\\python37\\lib\\site-packages\\requests\\cookies.py',
   'PYMODULE'),
  ('dummy_threading', 'd:\\python37\\lib\\dummy_threading.py', 'PYMODULE'),
  ('requests.compat',
   'd:\\python37\\lib\\site-packages\\requests\\compat.py',
   'PYMODULE'),
  ('http.cookies', 'd:\\python37\\lib\\http\\cookies.py', 'PYMODULE'),
  ('simplejson',
   'd:\\python37\\lib\\site-packages\\simplejson\\__init__.py',
   'PYMODULE'),
  ('simplejson.scanner',
   'd:\\python37\\lib\\site-packages\\simplejson\\scanner.py',
   'PYMODULE'),
  ('simplejson.ordered_dict',
   'd:\\python37\\lib\\site-packages\\simplejson\\ordered_dict.py',
   'PYMODULE'),
  ('simplejson.encoder',
   'd:\\python37\\lib\\site-packages\\simplejson\\encoder.py',
   'PYMODULE'),
  ('simplejson.compat',
   'd:\\python37\\lib\\site-packages\\simplejson\\compat.py',
   'PYMODULE'),
  ('simplejson.decoder',
   'd:\\python37\\lib\\site-packages\\simplejson\\decoder.py',
   'PYMODULE'),
  ('simplejson.raw_json',
   'd:\\python37\\lib\\site-packages\\simplejson\\raw_json.py',
   'PYMODULE'),
  ('simplejson.errors',
   'd:\\python37\\lib\\site-packages\\simplejson\\errors.py',
   'PYMODULE'),
  ('chardet',
   'd:\\python37\\lib\\site-packages\\chardet\\__init__.py',
   'PYMODULE'),
  ('chardet.version',
   'd:\\python37\\lib\\site-packages\\chardet\\version.py',
   'PYMODULE'),
  ('chardet.universaldetector',
   'd:\\python37\\lib\\site-packages\\chardet\\universaldetector.py',
   'PYMODULE'),
  ('chardet.sbcsgroupprober',
   'd:\\python37\\lib\\site-packages\\chardet\\sbcsgroupprober.py',
   'PYMODULE'),
  ('chardet.langturkishmodel',
   'd:\\python37\\lib\\site-packages\\chardet\\langturkishmodel.py',
   'PYMODULE'),
  ('chardet.hebrewprober',
   'd:\\python37\\lib\\site-packages\\chardet\\hebrewprober.py',
   'PYMODULE'),
  ('chardet.charsetprober',
   'd:\\python37\\lib\\site-packages\\chardet\\charsetprober.py',
   'PYMODULE'),
  ('chardet.langhebrewmodel',
   'd:\\python37\\lib\\site-packages\\chardet\\langhebrewmodel.py',
   'PYMODULE'),
  ('chardet.langthaimodel',
   'd:\\python37\\lib\\site-packages\\chardet\\langthaimodel.py',
   'PYMODULE'),
  ('chardet.langbulgarianmodel',
   'd:\\python37\\lib\\site-packages\\chardet\\langbulgarianmodel.py',
   'PYMODULE'),
  ('chardet.langgreekmodel',
   'd:\\python37\\lib\\site-packages\\chardet\\langgreekmodel.py',
   'PYMODULE'),
  ('chardet.langcyrillicmodel',
   'd:\\python37\\lib\\site-packages\\chardet\\langcyrillicmodel.py',
   'PYMODULE'),
  ('chardet.sbcharsetprober',
   'd:\\python37\\lib\\site-packages\\chardet\\sbcharsetprober.py',
   'PYMODULE'),
  ('chardet.mbcsgroupprober',
   'd:\\python37\\lib\\site-packages\\chardet\\mbcsgroupprober.py',
   'PYMODULE'),
  ('chardet.euctwprober',
   'd:\\python37\\lib\\site-packages\\chardet\\euctwprober.py',
   'PYMODULE'),
  ('chardet.mbcssm',
   'd:\\python37\\lib\\site-packages\\chardet\\mbcssm.py',
   'PYMODULE'),
  ('chardet.chardistribution',
   'd:\\python37\\lib\\site-packages\\chardet\\chardistribution.py',
   'PYMODULE'),
  ('chardet.jisfreq',
   'd:\\python37\\lib\\site-packages\\chardet\\jisfreq.py',
   'PYMODULE'),
  ('chardet.big5freq',
   'd:\\python37\\lib\\site-packages\\chardet\\big5freq.py',
   'PYMODULE'),
  ('chardet.gb2312freq',
   'd:\\python37\\lib\\site-packages\\chardet\\gb2312freq.py',
   'PYMODULE'),
  ('chardet.euckrfreq',
   'd:\\python37\\lib\\site-packages\\chardet\\euckrfreq.py',
   'PYMODULE'),
  ('chardet.euctwfreq',
   'd:\\python37\\lib\\site-packages\\chardet\\euctwfreq.py',
   'PYMODULE'),
  ('chardet.codingstatemachine',
   'd:\\python37\\lib\\site-packages\\chardet\\codingstatemachine.py',
   'PYMODULE'),
  ('chardet.mbcharsetprober',
   'd:\\python37\\lib\\site-packages\\chardet\\mbcharsetprober.py',
   'PYMODULE'),
  ('chardet.big5prober',
   'd:\\python37\\lib\\site-packages\\chardet\\big5prober.py',
   'PYMODULE'),
  ('chardet.cp949prober',
   'd:\\python37\\lib\\site-packages\\chardet\\cp949prober.py',
   'PYMODULE'),
  ('chardet.euckrprober',
   'd:\\python37\\lib\\site-packages\\chardet\\euckrprober.py',
   'PYMODULE'),
  ('chardet.gb2312prober',
   'd:\\python37\\lib\\site-packages\\chardet\\gb2312prober.py',
   'PYMODULE'),
  ('chardet.eucjpprober',
   'd:\\python37\\lib\\site-packages\\chardet\\eucjpprober.py',
   'PYMODULE'),
  ('chardet.jpcntx',
   'd:\\python37\\lib\\site-packages\\chardet\\jpcntx.py',
   'PYMODULE'),
  ('chardet.sjisprober',
   'd:\\python37\\lib\\site-packages\\chardet\\sjisprober.py',
   'PYMODULE'),
  ('chardet.utf8prober',
   'd:\\python37\\lib\\site-packages\\chardet\\utf8prober.py',
   'PYMODULE'),
  ('chardet.latin1prober',
   'd:\\python37\\lib\\site-packages\\chardet\\latin1prober.py',
   'PYMODULE'),
  ('chardet.escprober',
   'd:\\python37\\lib\\site-packages\\chardet\\escprober.py',
   'PYMODULE'),
  ('chardet.escsm',
   'd:\\python37\\lib\\site-packages\\chardet\\escsm.py',
   'PYMODULE'),
  ('chardet.enums',
   'd:\\python37\\lib\\site-packages\\chardet\\enums.py',
   'PYMODULE'),
  ('chardet.charsetgroupprober',
   'd:\\python37\\lib\\site-packages\\chardet\\charsetgroupprober.py',
   'PYMODULE'),
  ('chardet.compat',
   'd:\\python37\\lib\\site-packages\\chardet\\compat.py',
   'PYMODULE'),
  ('requests._internal_utils',
   'd:\\python37\\lib\\site-packages\\requests\\_internal_utils.py',
   'PYMODULE'),
  ('requests.certs',
   'd:\\python37\\lib\\site-packages\\requests\\certs.py',
   'PYMODULE'),
  ('certifi',
   'd:\\python37\\lib\\site-packages\\certifi\\__init__.py',
   'PYMODULE'),
  ('certifi.core',
   'd:\\python37\\lib\\site-packages\\certifi\\core.py',
   'PYMODULE'),
  ('requests.__version__',
   'd:\\python37\\lib\\site-packages\\requests\\__version__.py',
   'PYMODULE'),
  ('requests_toolbelt.multipart',
   'd:\\python37\\lib\\site-packages\\requests_toolbelt\\multipart\\__init__.py',
   'PYMODULE'),
  ('requests_toolbelt.multipart.decoder',
   'd:\\python37\\lib\\site-packages\\requests_toolbelt\\multipart\\decoder.py',
   'PYMODULE'),
  ('requests_toolbelt.auth.guess',
   'd:\\python37\\lib\\site-packages\\requests_toolbelt\\auth\\guess.py',
   'PYMODULE'),
  ('requests_toolbelt.auth.http_proxy_digest',
   'd:\\python37\\lib\\site-packages\\requests_toolbelt\\auth\\http_proxy_digest.py',
   'PYMODULE'),
  ('requests_toolbelt.auth._digest_auth_compat',
   'd:\\python37\\lib\\site-packages\\requests_toolbelt\\auth\\_digest_auth_compat.py',
   'PYMODULE'),
  ('requests_toolbelt.auth',
   'd:\\python37\\lib\\site-packages\\requests_toolbelt\\auth\\__init__.py',
   'PYMODULE'),
  ('requests.auth',
   'd:\\python37\\lib\\site-packages\\requests\\auth.py',
   'PYMODULE'),
  ('requests_toolbelt.adapters',
   'd:\\python37\\lib\\site-packages\\requests_toolbelt\\adapters\\__init__.py',
   'PYMODULE'),
  ('requests_toolbelt.adapters.source',
   'd:\\python37\\lib\\site-packages\\requests_toolbelt\\adapters\\source.py',
   'PYMODULE'),
  ('requests.adapters',
   'd:\\python37\\lib\\site-packages\\requests\\adapters.py',
   'PYMODULE'),
  ('urllib3.contrib.socks',
   'd:\\python37\\lib\\site-packages\\urllib3\\contrib\\socks.py',
   'PYMODULE'),
  ('socks', 'd:\\python37\\lib\\site-packages\\socks.py', 'PYMODULE'),
  ('win_inet_pton',
   'd:\\python37\\lib\\site-packages\\win_inet_pton.py',
   'PYMODULE'),
  ('requests.models',
   'd:\\python37\\lib\\site-packages\\requests\\models.py',
   'PYMODULE'),
  ('requests.status_codes',
   'd:\\python37\\lib\\site-packages\\requests\\status_codes.py',
   'PYMODULE'),
  ('requests.hooks',
   'd:\\python37\\lib\\site-packages\\requests\\hooks.py',
   'PYMODULE'),
  ('requests_toolbelt.adapters.ssl',
   'd:\\python37\\lib\\site-packages\\requests_toolbelt\\adapters\\ssl.py',
   'PYMODULE'),
  ('string', 'd:\\python37\\lib\\string.py', 'PYMODULE'),
  ('random', 'd:\\python37\\lib\\random.py', 'PYMODULE'),
  ('gzip', 'd:\\python37\\lib\\gzip.py', 'PYMODULE'),
  ('base64', 'd:\\python37\\lib\\base64.py', 'PYMODULE'),
  ('sqlite3', 'd:\\python37\\lib\\sqlite3\\__init__.py', 'PYMODULE'),
  ('sqlite3.dump', 'd:\\python37\\lib\\sqlite3\\dump.py', 'PYMODULE'),
  ('sqlite3.dbapi2', 'd:\\python37\\lib\\sqlite3\\dbapi2.py', 'PYMODULE'),
  ('json', 'd:\\python37\\lib\\json\\__init__.py', 'PYMODULE'),
  ('json.encoder', 'd:\\python37\\lib\\json\\encoder.py', 'PYMODULE'),
  ('json.decoder', 'd:\\python37\\lib\\json\\decoder.py', 'PYMODULE'),
  ('json.scanner', 'd:\\python37\\lib\\json\\scanner.py', 'PYMODULE'),
  ('ddddocr',
   'd:\\python37\\lib\\site-packages\\ddddocr\\__init__.py',
   'PYMODULE'),
  ('cv2', 'd:\\python37\\lib\\site-packages\\cv2\\__init__.py', 'PYMODULE'),
  ('cv2.version',
   'd:\\python37\\lib\\site-packages\\cv2\\version.py',
   'PYMODULE'),
  ('cv2.data',
   'd:\\python37\\lib\\site-packages\\cv2\\data\\__init__.py',
   'PYMODULE'),
  ('numpy', 'd:\\python37\\lib\\site-packages\\numpy\\__init__.py', 'PYMODULE'),
  ('numpy.core._dtype_ctypes',
   'd:\\python37\\lib\\site-packages\\numpy\\core\\_dtype_ctypes.py',
   'PYMODULE'),
  ('numpy._pytesttester',
   'd:\\python37\\lib\\site-packages\\numpy\\_pytesttester.py',
   'PYMODULE'),
  ('numpy.testing',
   'd:\\python37\\lib\\site-packages\\numpy\\testing\\__init__.py',
   'PYMODULE'),
  ('numpy.testing._private.nosetester',
   'd:\\python37\\lib\\site-packages\\numpy\\testing\\_private\\nosetester.py',
   'PYMODULE'),
  ('doctest', 'd:\\python37\\lib\\doctest.py', 'PYMODULE'),
  ('difflib', 'd:\\python37\\lib\\difflib.py', 'PYMODULE'),
  ('numpy.testing._private.noseclasses',
   'd:\\python37\\lib\\site-packages\\numpy\\testing\\_private\\noseclasses.py',
   'PYMODULE'),
  ('numpy.testing._private.decorators',
   'd:\\python37\\lib\\site-packages\\numpy\\testing\\_private\\decorators.py',
   'PYMODULE'),
  ('numpy.testing._private.parameterized',
   'd:\\python37\\lib\\site-packages\\numpy\\testing\\_private\\parameterized.py',
   'PYMODULE'),
  ('numpy.testing._private',
   'd:\\python37\\lib\\site-packages\\numpy\\testing\\_private\\__init__.py',
   'PYMODULE'),
  ('numpy.testing._private.utils',
   'd:\\python37\\lib\\site-packages\\numpy\\testing\\_private\\utils.py',
   'PYMODULE'),
  ('psutil',
   'd:\\python37\\lib\\site-packages\\psutil\\__init__.py',
   'PYMODULE'),
  ('psutil._psaix',
   'd:\\python37\\lib\\site-packages\\psutil\\_psaix.py',
   'PYMODULE'),
  ('psutil._pssunos',
   'd:\\python37\\lib\\site-packages\\psutil\\_pssunos.py',
   'PYMODULE'),
  ('psutil._psbsd',
   'd:\\python37\\lib\\site-packages\\psutil\\_psbsd.py',
   'PYMODULE'),
  ('xml.etree.ElementTree',
   'd:\\python37\\lib\\xml\\etree\\ElementTree.py',
   'PYMODULE'),
  ('xml.etree.cElementTree',
   'd:\\python37\\lib\\xml\\etree\\cElementTree.py',
   'PYMODULE'),
  ('xml.etree.ElementInclude',
   'd:\\python37\\lib\\xml\\etree\\ElementInclude.py',
   'PYMODULE'),
  ('xml.etree.ElementPath',
   'd:\\python37\\lib\\xml\\etree\\ElementPath.py',
   'PYMODULE'),
  ('xml.etree', 'd:\\python37\\lib\\xml\\etree\\__init__.py', 'PYMODULE'),
  ('psutil._psosx',
   'd:\\python37\\lib\\site-packages\\psutil\\_psosx.py',
   'PYMODULE'),
  ('psutil._pswindows',
   'd:\\python37\\lib\\site-packages\\psutil\\_pswindows.py',
   'PYMODULE'),
  ('psutil._pslinux',
   'd:\\python37\\lib\\site-packages\\psutil\\_pslinux.py',
   'PYMODULE'),
  ('psutil._psposix',
   'd:\\python37\\lib\\site-packages\\psutil\\_psposix.py',
   'PYMODULE'),
  ('psutil._compat',
   'd:\\python37\\lib\\site-packages\\psutil\\_compat.py',
   'PYMODULE'),
  ('psutil._common',
   'd:\\python37\\lib\\site-packages\\psutil\\_common.py',
   'PYMODULE'),
  ('numpy.core.fromnumeric',
   'd:\\python37\\lib\\site-packages\\numpy\\core\\fromnumeric.py',
   'PYMODULE'),
  ('numpy.core._methods',
   'd:\\python37\\lib\\site-packages\\numpy\\core\\_methods.py',
   'PYMODULE'),
  ('numpy.core._exceptions',
   'd:\\python37\\lib\\site-packages\\numpy\\core\\_exceptions.py',
   'PYMODULE'),
  ('numpy.core._asarray',
   'd:\\python37\\lib\\site-packages\\numpy\\core\\_asarray.py',
   'PYMODULE'),
  ('numpy.core.umath',
   'd:\\python37\\lib\\site-packages\\numpy\\core\\umath.py',
   'PYMODULE'),
  ('numpy.core.overrides',
   'd:\\python37\\lib\\site-packages\\numpy\\core\\overrides.py',
   'PYMODULE'),
  ('numpy.compat._inspect',
   'd:\\python37\\lib\\site-packages\\numpy\\compat\\_inspect.py',
   'PYMODULE'),
  ('numpy.core.multiarray',
   'd:\\python37\\lib\\site-packages\\numpy\\core\\multiarray.py',
   'PYMODULE'),
  ('numpy.core.numerictypes',
   'd:\\python37\\lib\\site-packages\\numpy\\core\\numerictypes.py',
   'PYMODULE'),
  ('numpy.core._dtype',
   'd:\\python37\\lib\\site-packages\\numpy\\core\\_dtype.py',
   'PYMODULE'),
  ('numpy.core._type_aliases',
   'd:\\python37\\lib\\site-packages\\numpy\\core\\_type_aliases.py',
   'PYMODULE'),
  ('numpy.core._string_helpers',
   'd:\\python37\\lib\\site-packages\\numpy\\core\\_string_helpers.py',
   'PYMODULE'),
  ('unittest.case', 'd:\\python37\\lib\\unittest\\case.py', 'PYMODULE'),
  ('unittest.util', 'd:\\python37\\lib\\unittest\\util.py', 'PYMODULE'),
  ('unittest.result', 'd:\\python37\\lib\\unittest\\result.py', 'PYMODULE'),
  ('unittest', 'd:\\python37\\lib\\unittest\\__init__.py', 'PYMODULE'),
  ('unittest.signals', 'd:\\python37\\lib\\unittest\\signals.py', 'PYMODULE'),
  ('unittest.main', 'd:\\python37\\lib\\unittest\\main.py', 'PYMODULE'),
  ('unittest.runner', 'd:\\python37\\lib\\unittest\\runner.py', 'PYMODULE'),
  ('unittest.loader', 'd:\\python37\\lib\\unittest\\loader.py', 'PYMODULE'),
  ('unittest.suite', 'd:\\python37\\lib\\unittest\\suite.py', 'PYMODULE'),
  ('numpy.matrixlib',
   'd:\\python37\\lib\\site-packages\\numpy\\matrixlib\\__init__.py',
   'PYMODULE'),
  ('numpy.matrixlib.defmatrix',
   'd:\\python37\\lib\\site-packages\\numpy\\matrixlib\\defmatrix.py',
   'PYMODULE'),
  ('numpy.dual',
   'd:\\python37\\lib\\site-packages\\numpy\\dual.py',
   'PYMODULE'),
  ('numpy.core.numeric',
   'd:\\python37\\lib\\site-packages\\numpy\\core\\numeric.py',
   'PYMODULE'),
  ('numpy.core.arrayprint',
   'd:\\python37\\lib\\site-packages\\numpy\\core\\arrayprint.py',
   'PYMODULE'),
  ('numpy.core._ufunc_config',
   'd:\\python37\\lib\\site-packages\\numpy\\core\\_ufunc_config.py',
   'PYMODULE'),
  ('numpy.core.shape_base',
   'd:\\python37\\lib\\site-packages\\numpy\\core\\shape_base.py',
   'PYMODULE'),
  ('numpy.ma',
   'd:\\python37\\lib\\site-packages\\numpy\\ma\\__init__.py',
   'PYMODULE'),
  ('numpy.ma.extras',
   'd:\\python37\\lib\\site-packages\\numpy\\ma\\extras.py',
   'PYMODULE'),
  ('numpy.lib.index_tricks',
   'd:\\python37\\lib\\site-packages\\numpy\\lib\\index_tricks.py',
   'PYMODULE'),
  ('numpy.lib.stride_tricks',
   'd:\\python37\\lib\\site-packages\\numpy\\lib\\stride_tricks.py',
   'PYMODULE'),
  ('numpy.lib.function_base',
   'd:\\python37\\lib\\site-packages\\numpy\\lib\\function_base.py',
   'PYMODULE'),
  ('numpy.lib.histograms',
   'd:\\python37\\lib\\site-packages\\numpy\\lib\\histograms.py',
   'PYMODULE'),
  ('numpy.lib.twodim_base',
   'd:\\python37\\lib\\site-packages\\numpy\\lib\\twodim_base.py',
   'PYMODULE'),
  ('numpy.core.function_base',
   'd:\\python37\\lib\\site-packages\\numpy\\core\\function_base.py',
   'PYMODULE'),
  ('numpy.ma.core',
   'd:\\python37\\lib\\site-packages\\numpy\\ma\\core.py',
   'PYMODULE'),
  ('numpy.core._internal',
   'd:\\python37\\lib\\site-packages\\numpy\\core\\_internal.py',
   'PYMODULE'),
  ('numpy.ctypeslib',
   'd:\\python37\\lib\\site-packages\\numpy\\ctypeslib.py',
   'PYMODULE'),
  ('numpy.random',
   'd:\\python37\\lib\\site-packages\\numpy\\random\\__init__.py',
   'PYMODULE'),
  ('numpy.random._pickle',
   'd:\\python37\\lib\\site-packages\\numpy\\random\\_pickle.py',
   'PYMODULE'),
  ('numpy.polynomial',
   'd:\\python37\\lib\\site-packages\\numpy\\polynomial\\__init__.py',
   'PYMODULE'),
  ('numpy.polynomial.laguerre',
   'd:\\python37\\lib\\site-packages\\numpy\\polynomial\\laguerre.py',
   'PYMODULE'),
  ('numpy.polynomial._polybase',
   'd:\\python37\\lib\\site-packages\\numpy\\polynomial\\_polybase.py',
   'PYMODULE'),
  ('numpy.polynomial.hermite_e',
   'd:\\python37\\lib\\site-packages\\numpy\\polynomial\\hermite_e.py',
   'PYMODULE'),
  ('numpy.polynomial.hermite',
   'd:\\python37\\lib\\site-packages\\numpy\\polynomial\\hermite.py',
   'PYMODULE'),
  ('numpy.polynomial.legendre',
   'd:\\python37\\lib\\site-packages\\numpy\\polynomial\\legendre.py',
   'PYMODULE'),
  ('numpy.polynomial.chebyshev',
   'd:\\python37\\lib\\site-packages\\numpy\\polynomial\\chebyshev.py',
   'PYMODULE'),
  ('numpy.polynomial.polynomial',
   'd:\\python37\\lib\\site-packages\\numpy\\polynomial\\polynomial.py',
   'PYMODULE'),
  ('numpy.polynomial.polyutils',
   'd:\\python37\\lib\\site-packages\\numpy\\polynomial\\polyutils.py',
   'PYMODULE'),
  ('numpy.fft',
   'd:\\python37\\lib\\site-packages\\numpy\\fft\\__init__.py',
   'PYMODULE'),
  ('numpy.fft.helper',
   'd:\\python37\\lib\\site-packages\\numpy\\fft\\helper.py',
   'PYMODULE'),
  ('numpy.fft._pocketfft',
   'd:\\python37\\lib\\site-packages\\numpy\\fft\\_pocketfft.py',
   'PYMODULE'),
  ('numpy.linalg',
   'd:\\python37\\lib\\site-packages\\numpy\\linalg\\__init__.py',
   'PYMODULE'),
  ('numpy.linalg.linalg',
   'd:\\python37\\lib\\site-packages\\numpy\\linalg\\linalg.py',
   'PYMODULE'),
  ('numpy.lib',
   'd:\\python37\\lib\\site-packages\\numpy\\lib\\__init__.py',
   'PYMODULE'),
  ('numpy.lib._version',
   'd:\\python37\\lib\\site-packages\\numpy\\lib\\_version.py',
   'PYMODULE'),
  ('numpy.lib.arraypad',
   'd:\\python37\\lib\\site-packages\\numpy\\lib\\arraypad.py',
   'PYMODULE'),
  ('numpy.lib.arrayterator',
   'd:\\python37\\lib\\site-packages\\numpy\\lib\\arrayterator.py',
   'PYMODULE'),
  ('numpy.lib.financial',
   'd:\\python37\\lib\\site-packages\\numpy\\lib\\financial.py',
   'PYMODULE'),
  ('numpy.lib.npyio',
   'd:\\python37\\lib\\site-packages\\numpy\\lib\\npyio.py',
   'PYMODULE'),
  ('numpy.ma.mrecords',
   'd:\\python37\\lib\\site-packages\\numpy\\ma\\mrecords.py',
   'PYMODULE'),
  ('numpy.core.records',
   'd:\\python37\\lib\\site-packages\\numpy\\core\\records.py',
   'PYMODULE'),
  ('numpy.lib._iotools',
   'd:\\python37\\lib\\site-packages\\numpy\\lib\\_iotools.py',
   'PYMODULE'),
  ('numpy.lib._datasource',
   'd:\\python37\\lib\\site-packages\\numpy\\lib\\_datasource.py',
   'PYMODULE'),
  ('numpy.lib.format',
   'd:\\python37\\lib\\site-packages\\numpy\\lib\\format.py',
   'PYMODULE'),
  ('numpy.lib.arraysetops',
   'd:\\python37\\lib\\site-packages\\numpy\\lib\\arraysetops.py',
   'PYMODULE'),
  ('numpy.lib.utils',
   'd:\\python37\\lib\\site-packages\\numpy\\lib\\utils.py',
   'PYMODULE'),
  ('numpy.lib.polynomial',
   'd:\\python37\\lib\\site-packages\\numpy\\lib\\polynomial.py',
   'PYMODULE'),
  ('numpy.lib.ufunclike',
   'd:\\python37\\lib\\site-packages\\numpy\\lib\\ufunclike.py',
   'PYMODULE'),
  ('numpy.lib.shape_base',
   'd:\\python37\\lib\\site-packages\\numpy\\lib\\shape_base.py',
   'PYMODULE'),
  ('numpy.lib.nanfunctions',
   'd:\\python37\\lib\\site-packages\\numpy\\lib\\nanfunctions.py',
   'PYMODULE'),
  ('numpy.lib.type_check',
   'd:\\python37\\lib\\site-packages\\numpy\\lib\\type_check.py',
   'PYMODULE'),
  ('numpy.core.getlimits',
   'd:\\python37\\lib\\site-packages\\numpy\\core\\getlimits.py',
   'PYMODULE'),
  ('numpy.core.machar',
   'd:\\python37\\lib\\site-packages\\numpy\\core\\machar.py',
   'PYMODULE'),
  ('numpy.lib.scimath',
   'd:\\python37\\lib\\site-packages\\numpy\\lib\\scimath.py',
   'PYMODULE'),
  ('numpy.lib.mixins',
   'd:\\python37\\lib\\site-packages\\numpy\\lib\\mixins.py',
   'PYMODULE'),
  ('numpy.compat',
   'd:\\python37\\lib\\site-packages\\numpy\\compat\\__init__.py',
   'PYMODULE'),
  ('numpy.compat.py3k',
   'd:\\python37\\lib\\site-packages\\numpy\\compat\\py3k.py',
   'PYMODULE'),
  ('numpy.core',
   'd:\\python37\\lib\\site-packages\\numpy\\core\\__init__.py',
   'PYMODULE'),
  ('numpy.core._add_newdocs',
   'd:\\python37\\lib\\site-packages\\numpy\\core\\_add_newdocs.py',
   'PYMODULE'),
  ('numpy.core.einsumfunc',
   'd:\\python37\\lib\\site-packages\\numpy\\core\\einsumfunc.py',
   'PYMODULE'),
  ('numpy.core.memmap',
   'd:\\python37\\lib\\site-packages\\numpy\\core\\memmap.py',
   'PYMODULE'),
  ('numpy.core.defchararray',
   'd:\\python37\\lib\\site-packages\\numpy\\core\\defchararray.py',
   'PYMODULE'),
  ('numpy._distributor_init',
   'd:\\python37\\lib\\site-packages\\numpy\\_distributor_init.py',
   'PYMODULE'),
  ('numpy.version',
   'd:\\python37\\lib\\site-packages\\numpy\\version.py',
   'PYMODULE'),
  ('numpy.__config__',
   'd:\\python37\\lib\\site-packages\\numpy\\__config__.py',
   'PYMODULE'),
  ('numpy._globals',
   'd:\\python37\\lib\\site-packages\\numpy\\_globals.py',
   'PYMODULE'),
  ('PIL.ImageChops',
   'd:\\python37\\lib\\site-packages\\PIL\\ImageChops.py',
   'PYMODULE'),
  ('PIL.Image', 'd:\\python37\\lib\\site-packages\\PIL\\Image.py', 'PYMODULE'),
  ('PIL.XpmImagePlugin',
   'd:\\python37\\lib\\site-packages\\PIL\\XpmImagePlugin.py',
   'PYMODULE'),
  ('PIL.ImageFile',
   'd:\\python37\\lib\\site-packages\\PIL\\ImageFile.py',
   'PYMODULE'),
  ('PIL.XbmImagePlugin',
   'd:\\python37\\lib\\site-packages\\PIL\\XbmImagePlugin.py',
   'PYMODULE'),
  ('PIL.XVThumbImagePlugin',
   'd:\\python37\\lib\\site-packages\\PIL\\XVThumbImagePlugin.py',
   'PYMODULE'),
  ('PIL.WmfImagePlugin',
   'd:\\python37\\lib\\site-packages\\PIL\\WmfImagePlugin.py',
   'PYMODULE'),
  ('PIL.WebPImagePlugin',
   'd:\\python37\\lib\\site-packages\\PIL\\WebPImagePlugin.py',
   'PYMODULE'),
  ('PIL.TgaImagePlugin',
   'd:\\python37\\lib\\site-packages\\PIL\\TgaImagePlugin.py',
   'PYMODULE'),
  ('PIL.SunImagePlugin',
   'd:\\python37\\lib\\site-packages\\PIL\\SunImagePlugin.py',
   'PYMODULE'),
  ('PIL.SpiderImagePlugin',
   'd:\\python37\\lib\\site-packages\\PIL\\SpiderImagePlugin.py',
   'PYMODULE'),
  ('PIL.ImageTk',
   'd:\\python37\\lib\\site-packages\\PIL\\ImageTk.py',
   'PYMODULE'),
  ('PIL.SgiImagePlugin',
   'd:\\python37\\lib\\site-packages\\PIL\\SgiImagePlugin.py',
   'PYMODULE'),
  ('PIL.PsdImagePlugin',
   'd:\\python37\\lib\\site-packages\\PIL\\PsdImagePlugin.py',
   'PYMODULE'),
  ('PIL.PixarImagePlugin',
   'd:\\python37\\lib\\site-packages\\PIL\\PixarImagePlugin.py',
   'PYMODULE'),
  ('PIL.PdfImagePlugin',
   'd:\\python37\\lib\\site-packages\\PIL\\PdfImagePlugin.py',
   'PYMODULE'),
  ('PIL.PdfParser',
   'd:\\python37\\lib\\site-packages\\PIL\\PdfParser.py',
   'PYMODULE'),
  ('PIL.ImageSequence',
   'd:\\python37\\lib\\site-packages\\PIL\\ImageSequence.py',
   'PYMODULE'),
  ('PIL.PcxImagePlugin',
   'd:\\python37\\lib\\site-packages\\PIL\\PcxImagePlugin.py',
   'PYMODULE'),
  ('PIL.PcdImagePlugin',
   'd:\\python37\\lib\\site-packages\\PIL\\PcdImagePlugin.py',
   'PYMODULE'),
  ('PIL.PalmImagePlugin',
   'd:\\python37\\lib\\site-packages\\PIL\\PalmImagePlugin.py',
   'PYMODULE'),
  ('PIL.MspImagePlugin',
   'd:\\python37\\lib\\site-packages\\PIL\\MspImagePlugin.py',
   'PYMODULE'),
  ('PIL.MpoImagePlugin',
   'd:\\python37\\lib\\site-packages\\PIL\\MpoImagePlugin.py',
   'PYMODULE'),
  ('PIL.MpegImagePlugin',
   'd:\\python37\\lib\\site-packages\\PIL\\MpegImagePlugin.py',
   'PYMODULE'),
  ('PIL.MicImagePlugin',
   'd:\\python37\\lib\\site-packages\\PIL\\MicImagePlugin.py',
   'PYMODULE'),
  ('PIL.McIdasImagePlugin',
   'd:\\python37\\lib\\site-packages\\PIL\\McIdasImagePlugin.py',
   'PYMODULE'),
  ('PIL.Jpeg2KImagePlugin',
   'd:\\python37\\lib\\site-packages\\PIL\\Jpeg2KImagePlugin.py',
   'PYMODULE'),
  ('PIL.IptcImagePlugin',
   'd:\\python37\\lib\\site-packages\\PIL\\IptcImagePlugin.py',
   'PYMODULE'),
  ('PIL.ImtImagePlugin',
   'd:\\python37\\lib\\site-packages\\PIL\\ImtImagePlugin.py',
   'PYMODULE'),
  ('PIL.ImImagePlugin',
   'd:\\python37\\lib\\site-packages\\PIL\\ImImagePlugin.py',
   'PYMODULE'),
  ('PIL.IcoImagePlugin',
   'd:\\python37\\lib\\site-packages\\PIL\\IcoImagePlugin.py',
   'PYMODULE'),
  ('PIL.IcnsImagePlugin',
   'd:\\python37\\lib\\site-packages\\PIL\\IcnsImagePlugin.py',
   'PYMODULE'),
  ('PIL.Hdf5StubImagePlugin',
   'd:\\python37\\lib\\site-packages\\PIL\\Hdf5StubImagePlugin.py',
   'PYMODULE'),
  ('PIL.GribStubImagePlugin',
   'd:\\python37\\lib\\site-packages\\PIL\\GribStubImagePlugin.py',
   'PYMODULE'),
  ('PIL.GbrImagePlugin',
   'd:\\python37\\lib\\site-packages\\PIL\\GbrImagePlugin.py',
   'PYMODULE'),
  ('PIL.FtexImagePlugin',
   'd:\\python37\\lib\\site-packages\\PIL\\FtexImagePlugin.py',
   'PYMODULE'),
  ('PIL.FpxImagePlugin',
   'd:\\python37\\lib\\site-packages\\PIL\\FpxImagePlugin.py',
   'PYMODULE'),
  ('PIL.FliImagePlugin',
   'd:\\python37\\lib\\site-packages\\PIL\\FliImagePlugin.py',
   'PYMODULE'),
  ('PIL.FitsStubImagePlugin',
   'd:\\python37\\lib\\site-packages\\PIL\\FitsStubImagePlugin.py',
   'PYMODULE'),
  ('PIL.EpsImagePlugin',
   'd:\\python37\\lib\\site-packages\\PIL\\EpsImagePlugin.py',
   'PYMODULE'),
  ('PIL.DdsImagePlugin',
   'd:\\python37\\lib\\site-packages\\PIL\\DdsImagePlugin.py',
   'PYMODULE'),
  ('PIL.DcxImagePlugin',
   'd:\\python37\\lib\\site-packages\\PIL\\DcxImagePlugin.py',
   'PYMODULE'),
  ('PIL.CurImagePlugin',
   'd:\\python37\\lib\\site-packages\\PIL\\CurImagePlugin.py',
   'PYMODULE'),
  ('PIL.BufrStubImagePlugin',
   'd:\\python37\\lib\\site-packages\\PIL\\BufrStubImagePlugin.py',
   'PYMODULE'),
  ('PIL.BlpImagePlugin',
   'd:\\python37\\lib\\site-packages\\PIL\\BlpImagePlugin.py',
   'PYMODULE'),
  ('PIL.TiffImagePlugin',
   'd:\\python37\\lib\\site-packages\\PIL\\TiffImagePlugin.py',
   'PYMODULE'),
  ('PIL.ImageShow',
   'd:\\python37\\lib\\site-packages\\PIL\\ImageShow.py',
   'PYMODULE'),
  ('pipes', 'd:\\python37\\lib\\pipes.py', 'PYMODULE'),
  ('PIL.ImageQt',
   'd:\\python37\\lib\\site-packages\\PIL\\ImageQt.py',
   'PYMODULE'),
  ('PIL.ImageColor',
   'd:\\python37\\lib\\site-packages\\PIL\\ImageColor.py',
   'PYMODULE'),
  ('colorsys', 'd:\\python37\\lib\\colorsys.py', 'PYMODULE'),
  ('PIL.ImageFilter',
   'd:\\python37\\lib\\site-packages\\PIL\\ImageFilter.py',
   'PYMODULE'),
  ('PIL.PyAccess',
   'd:\\python37\\lib\\site-packages\\PIL\\PyAccess.py',
   'PYMODULE'),
  ('PIL.ImagePalette',
   'd:\\python37\\lib\\site-packages\\PIL\\ImagePalette.py',
   'PYMODULE'),
  ('PIL.PaletteFile',
   'd:\\python37\\lib\\site-packages\\PIL\\PaletteFile.py',
   'PYMODULE'),
  ('PIL.GimpPaletteFile',
   'd:\\python37\\lib\\site-packages\\PIL\\GimpPaletteFile.py',
   'PYMODULE'),
  ('PIL.GimpGradientFile',
   'd:\\python37\\lib\\site-packages\\PIL\\GimpGradientFile.py',
   'PYMODULE'),
  ('PIL.PngImagePlugin',
   'd:\\python37\\lib\\site-packages\\PIL\\PngImagePlugin.py',
   'PYMODULE'),
  ('PIL.PpmImagePlugin',
   'd:\\python37\\lib\\site-packages\\PIL\\PpmImagePlugin.py',
   'PYMODULE'),
  ('PIL.JpegImagePlugin',
   'd:\\python37\\lib\\site-packages\\PIL\\JpegImagePlugin.py',
   'PYMODULE'),
  ('PIL.JpegPresets',
   'd:\\python37\\lib\\site-packages\\PIL\\JpegPresets.py',
   'PYMODULE'),
  ('PIL.GifImagePlugin',
   'd:\\python37\\lib\\site-packages\\PIL\\GifImagePlugin.py',
   'PYMODULE'),
  ('PIL.BmpImagePlugin',
   'd:\\python37\\lib\\site-packages\\PIL\\BmpImagePlugin.py',
   'PYMODULE'),
  ('PIL._util', 'd:\\python37\\lib\\site-packages\\PIL\\_util.py', 'PYMODULE'),
  ('PIL._binary',
   'd:\\python37\\lib\\site-packages\\PIL\\_binary.py',
   'PYMODULE'),
  ('PIL.TiffTags',
   'd:\\python37\\lib\\site-packages\\PIL\\TiffTags.py',
   'PYMODULE'),
  ('PIL.ImageMode',
   'd:\\python37\\lib\\site-packages\\PIL\\ImageMode.py',
   'PYMODULE'),
  ('PIL', 'd:\\python37\\lib\\site-packages\\PIL\\__init__.py', 'PYMODULE'),
  ('PIL._version',
   'd:\\python37\\lib\\site-packages\\PIL\\_version.py',
   'PYMODULE'),
  ('onnxruntime',
   'd:\\python37\\lib\\site-packages\\onnxruntime\\__init__.py',
   'PYMODULE'),
  ('onnxruntime.capi.training',
   'd:\\python37\\lib\\site-packages\\onnxruntime\\capi\\training\\__init__.py',
   'PYMODULE'),
  ('onnxruntime.capi.onnxruntime_inference_collection',
   'd:\\python37\\lib\\site-packages\\onnxruntime\\capi\\onnxruntime_inference_collection.py',
   'PYMODULE'),
  ('onnxruntime.capi.onnxruntime_validation',
   'd:\\python37\\lib\\site-packages\\onnxruntime\\capi\\onnxruntime_validation.py',
   'PYMODULE'),
  ('onnxruntime.capi.onnxruntime_collect_build_info',
   'd:\\python37\\lib\\site-packages\\onnxruntime\\capi\\onnxruntime_collect_build_info.py',
   'PYMODULE'),
  ('onnxruntime.capi',
   'd:\\python37\\lib\\site-packages\\onnxruntime\\capi\\__init__.py',
   'PYMODULE'),
  ('onnxruntime.capi.version_info',
   'd:\\python37\\lib\\site-packages\\onnxruntime\\capi\\version_info.py',
   'PYMODULE'),
  ('onnxruntime.capi._ld_preload',
   'd:\\python37\\lib\\site-packages\\onnxruntime\\capi\\_ld_preload.py',
   'PYMODULE'),
  ('onnxruntime.capi._pybind_state',
   'd:\\python37\\lib\\site-packages\\onnxruntime\\capi\\_pybind_state.py',
   'PYMODULE'),
  ('requests',
   'd:\\python37\\lib\\site-packages\\requests\\__init__.py',
   'PYMODULE'),
  ('requests.api',
   'd:\\python37\\lib\\site-packages\\requests\\api.py',
   'PYMODULE'),
  ('requests.sessions',
   'd:\\python37\\lib\\site-packages\\requests\\sessions.py',
   'PYMODULE'),
  ('requests.packages',
   'd:\\python37\\lib\\site-packages\\requests\\packages.py',
   'PYMODULE')])
